<svg width="557" height="151" viewBox="0 0 557 151" fill="none" xmlns="http://www.w3.org/2000/svg">
<g filter="url(#filter0_d_49_86)">
<mask id="path-1-inside-1_49_86" fill="white">
<path d="M374.893 118.895C375.103 116.733 374.338 114.832 372.823 113.033C371.276 111.203 370.505 109.226 371.668 107.044L371.853 106.548C372.538 104.582 372.223 102.767 370.367 101.26C368.973 100.126 368.592 98.8242 368.998 97.3272C369.537 95.3604 369.36 93.536 367.846 91.7725C366.533 90.2422 366.306 88.5523 367.349 86.7417C368.23 85.2217 368.805 83.5811 369.363 81.9635C369.797 80.7032 369.802 79.3683 369.192 78.1424C368.7 77.1418 368.828 76.2342 369.134 75.2496C369.46 74.211 369.642 73.138 369.818 72.0765C369.956 71.2596 369.608 70.5358 368.828 69.9752C367.803 69.2399 367.448 68.3254 367.618 67.2823C367.824 66.0863 368.119 64.903 367.32 63.7518C367.177 63.5508 367.261 63.2429 367.283 62.9855C367.481 60.9072 366.81 58.9737 365.767 57.0907C365.17 56.0062 364.917 54.8642 365.073 53.6832C365.377 51.3924 365.192 49.1062 364.682 46.8613C364.133 44.4464 363.268 42.0797 362.617 39.6786C362.391 38.848 362.243 37.9737 362.309 37.1327C362.444 35.4175 362.707 33.7045 363.001 31.9973C363.355 29.9397 363.999 27.9441 365.133 26.0462C366.221 24.2092 367.232 22.3423 368.239 20.4777C368.6 19.8045 368.91 19.1071 369.126 18.3971C369.391 17.5435 369.377 16.6819 368.716 15.9053C367.838 14.8747 366.681 14.6817 365.53 15.5457C364.593 16.2579 363.707 17.0713 363.077 17.9606C361.842 19.7091 360.42 21.329 358.708 22.8087C357.515 23.8393 357.006 25.0697 356.932 26.4736C356.797 29.2022 356.001 31.7584 353.475 33.8229C352.756 34.4122 352.124 35.0751 351.544 35.7541C350.958 36.4273 350.344 37.1247 350.011 37.8841C349.219 39.6706 348.357 41.472 347.953 43.3274C347.417 45.7986 346.589 48.1905 345.75 50.6031C345.054 52.6067 343.863 54.253 342.069 55.6983C340.932 56.6139 340.136 57.6985 339.639 58.8967C339.045 60.3317 338.525 61.7827 338.028 63.2406C337.805 63.9046 337.649 64.5905 337.567 65.2718C337.185 68.5322 336.883 71.7996 336.46 75.052C336.357 75.8229 336.447 76.6788 335.762 77.3796L335.47 77.1797C334.379 76.0044 334.247 74.643 334.079 73.254C333.69 69.9982 333.267 66.7503 333.436 63.4715C333.484 62.4812 333.436 61.4886 333.474 60.4982C333.508 59.6883 333.075 59.0863 332.29 58.6026C331.991 58.42 331.682 58.2511 331.337 58.05C331.399 57.44 331.462 56.8414 331.522 56.2452C331.663 54.7896 331.409 53.4373 330.207 52.2161C329.776 51.7841 329.59 51.0994 329.596 50.5342C329.612 49.074 329.787 47.6103 329.936 46.1524C330.051 44.9438 329.494 43.9616 328.416 43.1309C328.14 42.923 327.782 42.753 327.585 42.5083C327.277 42.128 326.829 41.688 326.86 41.2916C326.954 39.8797 327.112 38.4574 327.463 37.0741C327.739 35.9839 328.374 34.9522 328.773 33.8769C329.488 31.933 330.239 29.996 330.804 28.0234C331.094 27.0147 330.453 26.3105 329.367 25.9279C328.328 25.5545 327.459 25.6453 326.629 26.5322C325.197 28.0556 323.859 29.6422 322.645 31.269C322.109 31.9916 321.888 32.8762 321.647 33.7103C321.249 35.1096 320.824 36.5009 319.487 37.5601C318.043 38.7067 317.253 40.1037 316.742 41.6282C316.66 41.8798 316.496 42.1165 316.305 42.4818C315.404 40.6666 315.036 40.4886 313.084 40.8539C313.013 40.6069 312.988 40.3472 312.867 40.1175C312.325 39.0915 311.292 38.9318 310.32 39.7521C309.913 40.091 309.498 40.4828 309.298 40.9113C308.544 42.5289 307.787 44.15 307.196 45.8032C306.612 47.4621 306.315 49.182 305.748 50.8432C304.491 54.5 303.569 58.235 301.552 61.7172C301.307 62.1411 301.215 62.6248 301.103 63.0878C300.519 65.5797 300.607 68.0589 301.279 70.5358C302.086 73.4827 302.006 76.4456 301.419 79.4085C301.043 81.3236 299.608 82.8022 298.059 84.2199C295.606 86.459 294.535 89.0359 294.841 91.9862C294.988 93.4211 295.377 94.786 296.116 96.1049C297.399 98.3819 297.872 100.715 296.712 103.13C296.517 103.532 296.376 103.96 296.311 104.382C296.136 105.453 296.083 106.502 296.706 107.549C297.059 108.147 297.216 108.868 297.223 109.536C297.246 112.167 297.166 114.796 297.16 117.427C297.157 117.891 297.267 118.37 297.43 118.82C297.656 119.473 298.142 120.008 299.035 120.17C300 120.345 300.592 119.852 301.091 119.32C301.986 118.365 302.617 117.311 302.77 116.126C303.046 113.995 303.94 112.025 305.004 110.072C305.484 109.181 305.682 108.161 305.764 107.188C305.922 105.281 305.386 103.418 304.879 101.561C304.754 101.106 304.663 100.61 304.764 100.159C305.268 97.9442 306.349 95.8946 308.502 94.3839C310.275 93.1305 311.01 91.7162 310.705 89.9113C310.636 89.4817 310.678 89.0394 310.562 88.62C310.198 87.3207 310.414 86.0684 310.786 84.7874C311.292 83.0262 311.864 81.2547 312.052 79.4613C312.363 76.4846 313.013 73.5746 313.909 70.684C314.534 68.6781 314.545 66.6872 313.629 64.7054C312.742 62.7764 312.82 60.8222 313.679 58.8703C314.106 57.8949 314.341 56.8713 314.754 55.8925C315.208 54.8068 315.522 53.6556 316.811 52.5516C316.916 53.1766 317.061 53.581 317.037 53.9739C316.948 55.2652 316.833 56.5542 316.669 57.834C316.462 59.4987 316.917 60.9245 318.803 61.8999C319.641 62.3295 320.072 62.9488 320.235 63.7104C320.401 64.4744 320.891 65.1948 321.73 65.4958C323.715 66.2138 324.047 67.5476 324.232 68.9952L324.281 69.3812C324.673 71.9581 325.251 74.4707 326.887 76.8052C327.548 77.7461 327.638 78.942 327.93 80.0312C328.127 80.7423 328.045 81.5281 328.393 82.183C329.08 83.4869 328.966 84.7817 328.791 86.1236C328.432 88.9808 329.419 90.6317 332.653 91.1326C333.454 91.2555 333.9 91.6369 333.975 92.2826C334.059 92.9237 334.166 93.5624 334.272 94.2035C334.548 95.8751 334.88 97.5409 336.213 98.946C336.993 99.7663 337.989 100.24 339.353 99.9926C340.479 99.787 341.408 98.8897 341.532 97.7971C341.651 96.8091 341.753 95.8107 341.681 94.8262C341.482 92.1413 342.49 89.7321 344.125 87.4172C344.59 86.7566 344.959 85.9949 345.089 85.2481C345.327 83.8879 345.41 82.5047 345.461 81.1283C345.556 78.6445 346.129 76.3215 348.683 74.5867L349.015 74.2983C351.309 71.8398 352.609 69.1836 351.802 66.0771C351.189 63.6909 351.717 61.3656 352.529 59.0668C352.687 58.6164 352.923 58.1821 353.127 57.7398C353.406 58.2695 353.406 58.7428 353.406 59.2161C353.409 60.6775 353.982 61.9194 355.589 62.7914C355.989 63.0097 356.329 63.3083 356.655 63.6013C357.451 64.3239 357.874 65.1385 357.526 66.1058C357.202 67.0192 356.878 67.9291 356.523 68.8378C355.832 70.6048 354.823 72.3372 354.491 74.1433C354.022 76.7041 354.182 79.3097 355.458 81.7866C355.718 82.2979 355.979 82.8459 356.023 83.3893C356.108 84.6369 356.154 85.8938 356.053 87.1392C355.702 91.3348 357.164 95.0605 360.633 98.2842C361.533 99.1183 361.611 99.9949 361.278 101.052C360.82 102.503 360.514 103.995 360.37 105.485C360.21 107.086 361.055 108.339 363.092 108.953L363.374 109.183C363.374 109.997 363.384 110.859 363.366 111.717C363.35 112.859 363.833 113.844 364.938 114.592C365.806 115.184 366.696 115.783 367.68 116.246C368.683 116.721 368.985 117.33 368.84 118.194C368.7 119.004 368.649 119.822 368.58 120.64C368.524 121.327 368.743 121.931 369.592 122.278C370.377 122.599 370.953 122.226 371.541 121.894L371.859 121.88L372.069 122.06C373.031 122.818 373.652 122.946 374.506 122.567C375.353 122.185 375.529 121.631 375.221 120.664C375.037 120.086 374.838 119.474 374.893 118.895Z"/>
</mask>
<path d="M374.893 118.895C375.103 116.733 374.338 114.832 372.823 113.033C371.276 111.203 370.505 109.226 371.668 107.044L371.853 106.548C372.538 104.582 372.223 102.767 370.367 101.26C368.973 100.126 368.592 98.8242 368.998 97.3272C369.537 95.3604 369.36 93.536 367.846 91.7725C366.533 90.2422 366.306 88.5523 367.349 86.7417C368.23 85.2217 368.805 83.5811 369.363 81.9635C369.797 80.7032 369.802 79.3683 369.192 78.1424C368.7 77.1418 368.828 76.2342 369.134 75.2496C369.46 74.211 369.642 73.138 369.818 72.0765C369.956 71.2596 369.608 70.5358 368.828 69.9752C367.803 69.2399 367.448 68.3254 367.618 67.2823C367.824 66.0863 368.119 64.903 367.32 63.7518C367.177 63.5508 367.261 63.2429 367.283 62.9855C367.481 60.9072 366.81 58.9737 365.767 57.0907C365.17 56.0062 364.917 54.8642 365.073 53.6832C365.377 51.3924 365.192 49.1062 364.682 46.8613C364.133 44.4464 363.268 42.0797 362.617 39.6786C362.391 38.848 362.243 37.9737 362.309 37.1327C362.444 35.4175 362.707 33.7045 363.001 31.9973C363.355 29.9397 363.999 27.9441 365.133 26.0462C366.221 24.2092 367.232 22.3423 368.239 20.4777C368.6 19.8045 368.91 19.1071 369.126 18.3971C369.391 17.5435 369.377 16.6819 368.716 15.9053C367.838 14.8747 366.681 14.6817 365.53 15.5457C364.593 16.2579 363.707 17.0713 363.077 17.9606C361.842 19.7091 360.42 21.329 358.708 22.8087C357.515 23.8393 357.006 25.0697 356.932 26.4736C356.797 29.2022 356.001 31.7584 353.475 33.8229C352.756 34.4122 352.124 35.0751 351.544 35.7541C350.958 36.4273 350.344 37.1247 350.011 37.8841C349.219 39.6706 348.357 41.472 347.953 43.3274C347.417 45.7986 346.589 48.1905 345.75 50.6031C345.054 52.6067 343.863 54.253 342.069 55.6983C340.932 56.6139 340.136 57.6985 339.639 58.8967C339.045 60.3317 338.525 61.7827 338.028 63.2406C337.805 63.9046 337.649 64.5905 337.567 65.2718C337.185 68.5322 336.883 71.7996 336.46 75.052C336.357 75.8229 336.447 76.6788 335.762 77.3796L335.47 77.1797C334.379 76.0044 334.247 74.643 334.079 73.254C333.69 69.9982 333.267 66.7503 333.436 63.4715C333.484 62.4812 333.436 61.4886 333.474 60.4982C333.508 59.6883 333.075 59.0863 332.29 58.6026C331.991 58.42 331.682 58.2511 331.337 58.05C331.399 57.44 331.462 56.8414 331.522 56.2452C331.663 54.7896 331.409 53.4373 330.207 52.2161C329.776 51.7841 329.59 51.0994 329.596 50.5342C329.612 49.074 329.787 47.6103 329.936 46.1524C330.051 44.9438 329.494 43.9616 328.416 43.1309C328.14 42.923 327.782 42.753 327.585 42.5083C327.277 42.128 326.829 41.688 326.86 41.2916C326.954 39.8797 327.112 38.4574 327.463 37.0741C327.739 35.9839 328.374 34.9522 328.773 33.8769C329.488 31.933 330.239 29.996 330.804 28.0234C331.094 27.0147 330.453 26.3105 329.367 25.9279C328.328 25.5545 327.459 25.6453 326.629 26.5322C325.197 28.0556 323.859 29.6422 322.645 31.269C322.109 31.9916 321.888 32.8762 321.647 33.7103C321.249 35.1096 320.824 36.5009 319.487 37.5601C318.043 38.7067 317.253 40.1037 316.742 41.6282C316.66 41.8798 316.496 42.1165 316.305 42.4818C315.404 40.6666 315.036 40.4886 313.084 40.8539C313.013 40.6069 312.988 40.3472 312.867 40.1175C312.325 39.0915 311.292 38.9318 310.32 39.7521C309.913 40.091 309.498 40.4828 309.298 40.9113C308.544 42.5289 307.787 44.15 307.196 45.8032C306.612 47.4621 306.315 49.182 305.748 50.8432C304.491 54.5 303.569 58.235 301.552 61.7172C301.307 62.1411 301.215 62.6248 301.103 63.0878C300.519 65.5797 300.607 68.0589 301.279 70.5358C302.086 73.4827 302.006 76.4456 301.419 79.4085C301.043 81.3236 299.608 82.8022 298.059 84.2199C295.606 86.459 294.535 89.0359 294.841 91.9862C294.988 93.4211 295.377 94.786 296.116 96.1049C297.399 98.3819 297.872 100.715 296.712 103.13C296.517 103.532 296.376 103.96 296.311 104.382C296.136 105.453 296.083 106.502 296.706 107.549C297.059 108.147 297.216 108.868 297.223 109.536C297.246 112.167 297.166 114.796 297.16 117.427C297.157 117.891 297.267 118.37 297.43 118.82C297.656 119.473 298.142 120.008 299.035 120.17C300 120.345 300.592 119.852 301.091 119.32C301.986 118.365 302.617 117.311 302.77 116.126C303.046 113.995 303.94 112.025 305.004 110.072C305.484 109.181 305.682 108.161 305.764 107.188C305.922 105.281 305.386 103.418 304.879 101.561C304.754 101.106 304.663 100.61 304.764 100.159C305.268 97.9442 306.349 95.8946 308.502 94.3839C310.275 93.1305 311.01 91.7162 310.705 89.9113C310.636 89.4817 310.678 89.0394 310.562 88.62C310.198 87.3207 310.414 86.0684 310.786 84.7874C311.292 83.0262 311.864 81.2547 312.052 79.4613C312.363 76.4846 313.013 73.5746 313.909 70.684C314.534 68.6781 314.545 66.6872 313.629 64.7054C312.742 62.7764 312.82 60.8222 313.679 58.8703C314.106 57.8949 314.341 56.8713 314.754 55.8925C315.208 54.8068 315.522 53.6556 316.811 52.5516C316.916 53.1766 317.061 53.581 317.037 53.9739C316.948 55.2652 316.833 56.5542 316.669 57.834C316.462 59.4987 316.917 60.9245 318.803 61.8999C319.641 62.3295 320.072 62.9488 320.235 63.7104C320.401 64.4744 320.891 65.1948 321.73 65.4958C323.715 66.2138 324.047 67.5476 324.232 68.9952L324.281 69.3812C324.673 71.9581 325.251 74.4707 326.887 76.8052C327.548 77.7461 327.638 78.942 327.93 80.0312C328.127 80.7423 328.045 81.5281 328.393 82.183C329.08 83.4869 328.966 84.7817 328.791 86.1236C328.432 88.9808 329.419 90.6317 332.653 91.1326C333.454 91.2555 333.9 91.6369 333.975 92.2826C334.059 92.9237 334.166 93.5624 334.272 94.2035C334.548 95.8751 334.88 97.5409 336.213 98.946C336.993 99.7663 337.989 100.24 339.353 99.9926C340.479 99.787 341.408 98.8897 341.532 97.7971C341.651 96.8091 341.753 95.8107 341.681 94.8262C341.482 92.1413 342.49 89.7321 344.125 87.4172C344.59 86.7566 344.959 85.9949 345.089 85.2481C345.327 83.8879 345.41 82.5047 345.461 81.1283C345.556 78.6445 346.129 76.3215 348.683 74.5867L349.015 74.2983C351.309 71.8398 352.609 69.1836 351.802 66.0771C351.189 63.6909 351.717 61.3656 352.529 59.0668C352.687 58.6164 352.923 58.1821 353.127 57.7398C353.406 58.2695 353.406 58.7428 353.406 59.2161C353.409 60.6775 353.982 61.9194 355.589 62.7914C355.989 63.0097 356.329 63.3083 356.655 63.6013C357.451 64.3239 357.874 65.1385 357.526 66.1058C357.202 67.0192 356.878 67.9291 356.523 68.8378C355.832 70.6048 354.823 72.3372 354.491 74.1433C354.022 76.7041 354.182 79.3097 355.458 81.7866C355.718 82.2979 355.979 82.8459 356.023 83.3893C356.108 84.6369 356.154 85.8938 356.053 87.1392C355.702 91.3348 357.164 95.0605 360.633 98.2842C361.533 99.1183 361.611 99.9949 361.278 101.052C360.82 102.503 360.514 103.995 360.37 105.485C360.21 107.086 361.055 108.339 363.092 108.953L363.374 109.183C363.374 109.997 363.384 110.859 363.366 111.717C363.35 112.859 363.833 113.844 364.938 114.592C365.806 115.184 366.696 115.783 367.68 116.246C368.683 116.721 368.985 117.33 368.84 118.194C368.7 119.004 368.649 119.822 368.58 120.64C368.524 121.327 368.743 121.931 369.592 122.278C370.377 122.599 370.953 122.226 371.541 121.894L371.859 121.88L372.069 122.06C373.031 122.818 373.652 122.946 374.506 122.567C375.353 122.185 375.529 121.631 375.221 120.664C375.037 120.086 374.838 119.474 374.893 118.895Z" fill="#11B0C8" stroke="#87F54E" stroke-width="2" mask="url(#path-1-inside-1_49_86)"/>
<mask id="path-2-inside-2_49_86" fill="white">
<path d="M111.721 123.869C111.399 122.273 110.564 120.832 109.104 119.632C107.349 118.18 106.277 116.501 106.112 114.459C105.923 112.113 104.203 110.567 101.482 109.744C100.587 109.472 99.9513 109.103 99.5254 108.467C99.0158 107.705 98.4342 106.964 98.0098 106.175C97.4708 105.175 96.5295 104.502 95.265 104.281C93.789 104.022 93.137 103.32 92.8124 102.289C92.6905 101.911 92.5275 101.541 92.4541 101.158C91.9577 98.6864 90.2306 96.8747 87.5225 95.6258C86.6575 95.2249 86.2271 94.6666 85.8189 93.9738C84.9906 92.5722 84.2342 91.0775 83.0109 89.9057C81.2691 88.2364 79.075 86.9508 75.9792 87.9078L75.5885 87.8228C75.214 87.2093 74.8748 86.5246 74.4019 85.9019C73.2446 84.3923 72.4883 84.2579 70.5482 85.1333L70.2824 85.146C70.1135 84.8737 69.9344 84.5727 69.742 84.2717C69.0782 83.2331 68.4834 82.1601 67.7271 81.1629C67.05 80.2668 66.2305 79.4545 64.6297 79.5131C64.2229 79.528 63.7985 79.2305 63.0774 78.9662C63.8837 78.5285 64.3008 78.2379 64.781 78.0529C66.2775 77.4681 67.4084 76.6203 67.9723 75.3864C68.2293 74.8303 68.7066 74.5224 69.3469 74.3673C70.1326 74.1801 70.9404 74.0123 71.7569 73.956C73.9525 73.801 75.4094 72.7785 76.4771 71.4309C77.5785 70.0419 78.3906 68.5196 78.7328 66.8779C78.9076 66.0301 79.097 65.258 80.2146 64.7422C80.7433 64.4986 81.0723 63.8518 81.2662 63.3383C81.5041 62.6846 81.6054 61.978 81.5951 61.2991C81.579 60.118 81.9564 59.1312 83.0417 58.2523C85.0273 56.6542 85.5897 54.6793 85.1257 52.5114C84.7512 50.7606 84.5133 49.0453 85.346 47.2933C86.3358 45.2196 85.7043 43.3769 83.4397 41.9798C82.7465 41.5536 82.4895 41.0826 82.6085 40.4266C82.6804 40.0429 82.7304 39.6545 82.7524 39.2662C82.8317 37.937 82.9301 36.6078 82.9404 35.2751C82.9404 34.9098 82.7759 34.4778 82.4954 34.186C80.5275 32.1421 78.9443 31.5172 76.1672 32.2754C75.5944 32.4317 75.0202 32.6051 74.4283 32.6764C73.4722 32.7993 73.133 32.558 73.0302 31.8044C72.9582 31.2483 72.948 30.6831 72.804 30.1374C72.5147 28.9931 71.6703 28.4371 70.1679 28.3762C69.6215 28.3521 69.0606 28.3727 68.5245 28.4555C66.865 28.7105 65.4375 28.4945 64.0893 27.5984C63.1421 26.9631 61.973 26.5208 60.851 26.0635C58.9007 25.2662 56.8931 24.5562 54.956 23.7417C53.7605 23.2327 52.5196 22.9651 51.1743 22.926C50.5164 22.9053 49.8394 22.9777 49.1947 22.8869C47.0578 22.5859 45.3322 23.196 43.6947 24.1966C41.8707 25.3099 40.0129 26.3944 38.1052 27.4215C35.5997 28.7714 32.8887 29.4481 29.834 28.6841L29.1892 28.5818C27.9468 28.2751 26.8247 28.5278 25.6851 28.9437C23.8479 29.617 22.3191 30.5786 21.0135 31.7699C20.2468 32.4719 19.4685 32.7396 18.2848 32.3156C17.2332 31.9422 16.6253 32.0973 16.1245 32.743C14.929 34.2894 14.1551 36.8421 16.637 38.6838C17.038 38.9802 17.4389 39.2754 17.8633 39.55C19.583 40.6632 19.8151 42.0626 19.1807 43.6434C18.9046 44.3407 18.5991 45.0404 18.4346 45.755C17.7664 48.6984 18.0601 51.4361 21.269 53.5374C21.9387 53.9739 22.5115 54.5231 23.0475 55.0676C24.0065 56.043 24.7305 57.0793 24.2943 58.4039C23.9654 59.4012 23.8244 60.4351 23.5013 61.43C23.2281 62.271 23.2281 63.0292 23.8626 63.7806C24.0902 64.0471 24.2503 64.4309 24.2106 64.7399C24.1064 65.5476 24.3267 66.2748 24.7702 66.9894C25.2475 67.7534 25.2857 68.5116 24.9772 69.3606C24.4706 70.745 24.6659 72.0915 25.9113 73.2564C26.4429 73.7527 26.9247 74.2777 27.4563 74.774C28.2493 75.5093 28.64 76.2882 28.2684 77.2774C27.8469 78.393 28.0687 79.4579 28.7119 80.5298C30.0807 82.8103 30.9677 85.2287 30.9809 87.7562C30.9839 89.1888 31.1586 90.6892 30.0616 92.0184C29.1349 93.1374 29.6636 94.2656 30.6108 95.1192C31.9267 96.3071 32.5406 97.7041 33.1985 99.123C33.5069 99.7939 33.435 100.366 32.9518 100.96C31.5023 102.748 31.423 104.666 32.0119 106.681C32.4261 108.098 33.2411 109.359 34.2266 110.552C34.93 111.403 35.4587 112.283 35.657 113.275C35.8215 114.118 36.2489 114.826 37.1036 115.386C37.3738 115.563 37.6352 115.863 37.6646 116.127C37.8423 117.531 38.2697 118.916 37.7527 120.355C37.2269 121.818 37.6617 122.595 39.3682 123.39C40.5122 123.922 40.9322 124.678 40.9983 125.625C41.0483 126.356 40.9851 127.093 41.0321 127.824C41.1232 129.114 41.6269 130.28 42.9413 131.144C43.5361 131.536 44.1779 131.936 45.0194 131.658C45.8771 131.381 46.2266 130.779 46.2427 130.095C46.2662 129.281 46.2163 128.457 46.1473 127.641C46.0283 126.22 46.0944 124.87 47.9625 124.067L48.2063 123.895C50.1654 122.376 50.3695 120.78 49.0081 118.893C48.0095 117.504 47.5527 116.03 48.4457 114.449C48.7981 113.826 49.0904 113.139 49.1521 112.466C49.2079 111.806 49.1315 111.058 48.7673 110.482C48.0609 109.371 47.1298 108.343 46.253 107.298C44.8755 105.662 44.0971 103.994 45.5789 102.132L45.783 101.779C47.19 99.7709 47.3148 97.7639 45.7243 95.7764C45.2382 95.1686 45.1751 94.5861 45.7214 93.9738C46.7362 92.8479 46.5365 91.7209 45.7434 90.5686C45.2735 89.8896 44.8652 89.175 44.5362 88.4489C43.9047 87.06 44.4775 86.2167 46.5908 85.6296C47.4294 86.3454 48.334 87.1553 49.2857 87.9296C50.7029 89.0762 52.4652 89.5185 54.4111 89.0842C55.8783 88.758 56.7448 89.2336 57.4585 90.0769C58.2178 90.9764 58.8625 91.9334 59.6409 92.818C60.2621 93.52 60.9391 94.2128 61.7292 94.7987C62.5546 95.4191 63.1979 95.3375 64.0232 94.7148C65.555 93.5476 65.8839 93.5269 67.3467 94.7171C68.1485 95.3777 69.0136 95.8487 70.2222 95.7361C71.1269 95.6488 71.7011 95.9452 72.0594 96.5645C72.8246 97.896 73.647 99.2114 74.3505 100.561C75.2317 102.258 76.6885 102.794 78.7886 102.1C79.0911 102 79.3878 101.883 79.6962 101.786C80.8829 101.412 81.0048 101.392 81.6847 102.292C82.5233 103.4 83.2884 104.548 83.9919 105.714C84.9362 107.271 86.4871 108.292 88.5828 108.579C89.8575 108.756 90.5287 109.225 91.0413 110.035C91.3085 110.46 91.6302 110.867 91.896 111.291C93.1326 113.253 94.5321 115.084 97.4224 115.812L97.9746 116.09C99.3991 116.861 100.743 117.661 100.838 119.204C100.937 120.738 101.739 122.121 102.469 123.52C102.968 124.475 103.695 125.243 104.871 125.737C105.827 126.142 106.479 126.743 106.86 127.556C107.224 128.322 107.666 129.07 108.129 129.801C108.776 130.814 109.953 131.445 110.778 131.274C111.637 131.097 112.089 130.358 112.047 129.091C112.031 128.536 111.665 127.918 111.872 127.438C112.415 126.207 111.959 125.042 111.721 123.869ZM61.5633 69.0217C61.2211 69.1917 60.7879 69.2618 60.3825 69.3308C59.4852 69.495 58.5482 69.5651 57.6773 69.7914C56.6919 70.0488 55.7153 70.3728 54.8077 70.7737C54.1101 71.0851 53.436 71.4987 52.9337 71.98C52.2097 72.6762 51.3579 73.1599 50.1948 73.5264C49.7997 73.2667 49.4223 72.96 48.9788 72.7268C47.0329 71.6997 45.8565 71.6262 44.3013 72.5395C43.8768 72.7888 43.3804 72.9566 42.5418 73.3265C42.7004 72.5142 42.743 71.9846 42.9178 71.4826C43.0779 71.0299 43.4069 70.6163 43.6213 70.174C44.2792 68.8161 44.078 68.2485 42.4934 67.4604C41.8428 67.1387 41.596 66.7688 41.6122 66.1978C41.6386 65.3362 41.6225 64.4722 41.6152 63.6083C41.6093 62.3353 40.9601 61.3829 39.4431 60.8097C38.4239 60.4236 38.3357 60.1456 38.5854 59.261C38.7425 58.721 38.8747 58.165 38.954 57.6135C39.233 55.7512 38.0435 54.4553 36.2944 53.3513C35.9948 53.1628 35.6893 52.8055 35.6996 52.531C35.7392 51.2121 35.1782 49.8932 35.8391 48.5686C36.2562 47.7276 35.5762 47.0532 34.8463 46.5098C33.7023 45.6665 33.5671 44.644 33.8506 43.5377C34.0841 42.6071 34.6304 42.3256 35.823 42.4555C36.149 42.4945 36.4912 42.4991 36.8025 42.5715C39.5121 43.2126 41.6445 42.4072 43.5317 40.9562C43.8445 40.7149 44.1734 40.4794 44.4789 40.2336C45.5158 39.396 46.7935 39.0996 48.2415 39.218C49.1756 39.2927 50.0949 39.4673 51.026 39.5063C52.2288 39.558 53.4331 39.5224 54.7739 39.5224C57.4042 43.2597 58.5321 43.7066 62.581 42.5543C63.5547 43.3229 64.6488 44.0202 63.9351 45.377C63.6091 46.002 63.9057 46.6683 64.4741 47.1911C65.2569 47.9137 66.0381 48.6386 66.8958 49.305C67.4774 49.7599 68.1882 50.1149 68.855 50.5239C68.4276 51.0765 68.2234 51.3695 67.984 51.6406C67.0074 52.7435 66.8136 53.5155 67.8754 54.4668C69.3425 55.7754 68.573 57.154 68.4878 58.5303L68.2807 58.8692C67.235 59.7906 66.1689 60.7028 65.1276 61.6265C64.0952 62.5398 63.7868 63.6807 63.5503 64.8307C63.4123 65.5096 63.3638 66.2024 63.2243 66.8837C63.0392 67.7614 62.5634 68.5334 61.5633 69.0217Z"/>
</mask>
<path d="M111.721 123.869C111.399 122.273 110.564 120.832 109.104 119.632C107.349 118.18 106.277 116.501 106.112 114.459C105.923 112.113 104.203 110.567 101.482 109.744C100.587 109.472 99.9513 109.103 99.5254 108.467C99.0158 107.705 98.4342 106.964 98.0098 106.175C97.4708 105.175 96.5295 104.502 95.265 104.281C93.789 104.022 93.137 103.32 92.8124 102.289C92.6905 101.911 92.5275 101.541 92.4541 101.158C91.9577 98.6864 90.2306 96.8747 87.5225 95.6258C86.6575 95.2249 86.2271 94.6666 85.8189 93.9738C84.9906 92.5722 84.2342 91.0775 83.0109 89.9057C81.2691 88.2364 79.075 86.9508 75.9792 87.9078L75.5885 87.8228C75.214 87.2093 74.8748 86.5246 74.4019 85.9019C73.2446 84.3923 72.4883 84.2579 70.5482 85.1333L70.2824 85.146C70.1135 84.8737 69.9344 84.5727 69.742 84.2717C69.0782 83.2331 68.4834 82.1601 67.7271 81.1629C67.05 80.2668 66.2305 79.4545 64.6297 79.5131C64.2229 79.528 63.7985 79.2305 63.0774 78.9662C63.8837 78.5285 64.3008 78.2379 64.781 78.0529C66.2775 77.4681 67.4084 76.6203 67.9723 75.3864C68.2293 74.8303 68.7066 74.5224 69.3469 74.3673C70.1326 74.1801 70.9404 74.0123 71.7569 73.956C73.9525 73.801 75.4094 72.7785 76.4771 71.4309C77.5785 70.0419 78.3906 68.5196 78.7328 66.8779C78.9076 66.0301 79.097 65.258 80.2146 64.7422C80.7433 64.4986 81.0723 63.8518 81.2662 63.3383C81.5041 62.6846 81.6054 61.978 81.5951 61.2991C81.579 60.118 81.9564 59.1312 83.0417 58.2523C85.0273 56.6542 85.5897 54.6793 85.1257 52.5114C84.7512 50.7606 84.5133 49.0453 85.346 47.2933C86.3358 45.2196 85.7043 43.3769 83.4397 41.9798C82.7465 41.5536 82.4895 41.0826 82.6085 40.4266C82.6804 40.0429 82.7304 39.6545 82.7524 39.2662C82.8317 37.937 82.9301 36.6078 82.9404 35.2751C82.9404 34.9098 82.7759 34.4778 82.4954 34.186C80.5275 32.1421 78.9443 31.5172 76.1672 32.2754C75.5944 32.4317 75.0202 32.6051 74.4283 32.6764C73.4722 32.7993 73.133 32.558 73.0302 31.8044C72.9582 31.2483 72.948 30.6831 72.804 30.1374C72.5147 28.9931 71.6703 28.4371 70.1679 28.3762C69.6215 28.3521 69.0606 28.3727 68.5245 28.4555C66.865 28.7105 65.4375 28.4945 64.0893 27.5984C63.1421 26.9631 61.973 26.5208 60.851 26.0635C58.9007 25.2662 56.8931 24.5562 54.956 23.7417C53.7605 23.2327 52.5196 22.9651 51.1743 22.926C50.5164 22.9053 49.8394 22.9777 49.1947 22.8869C47.0578 22.5859 45.3322 23.196 43.6947 24.1966C41.8707 25.3099 40.0129 26.3944 38.1052 27.4215C35.5997 28.7714 32.8887 29.4481 29.834 28.6841L29.1892 28.5818C27.9468 28.2751 26.8247 28.5278 25.6851 28.9437C23.8479 29.617 22.3191 30.5786 21.0135 31.7699C20.2468 32.4719 19.4685 32.7396 18.2848 32.3156C17.2332 31.9422 16.6253 32.0973 16.1245 32.743C14.929 34.2894 14.1551 36.8421 16.637 38.6838C17.038 38.9802 17.4389 39.2754 17.8633 39.55C19.583 40.6632 19.8151 42.0626 19.1807 43.6434C18.9046 44.3407 18.5991 45.0404 18.4346 45.755C17.7664 48.6984 18.0601 51.4361 21.269 53.5374C21.9387 53.9739 22.5115 54.5231 23.0475 55.0676C24.0065 56.043 24.7305 57.0793 24.2943 58.4039C23.9654 59.4012 23.8244 60.4351 23.5013 61.43C23.2281 62.271 23.2281 63.0292 23.8626 63.7806C24.0902 64.0471 24.2503 64.4309 24.2106 64.7399C24.1064 65.5476 24.3267 66.2748 24.7702 66.9894C25.2475 67.7534 25.2857 68.5116 24.9772 69.3606C24.4706 70.745 24.6659 72.0915 25.9113 73.2564C26.4429 73.7527 26.9247 74.2777 27.4563 74.774C28.2493 75.5093 28.64 76.2882 28.2684 77.2774C27.8469 78.393 28.0687 79.4579 28.7119 80.5298C30.0807 82.8103 30.9677 85.2287 30.9809 87.7562C30.9839 89.1888 31.1586 90.6892 30.0616 92.0184C29.1349 93.1374 29.6636 94.2656 30.6108 95.1192C31.9267 96.3071 32.5406 97.7041 33.1985 99.123C33.5069 99.7939 33.435 100.366 32.9518 100.96C31.5023 102.748 31.423 104.666 32.0119 106.681C32.4261 108.098 33.2411 109.359 34.2266 110.552C34.93 111.403 35.4587 112.283 35.657 113.275C35.8215 114.118 36.2489 114.826 37.1036 115.386C37.3738 115.563 37.6352 115.863 37.6646 116.127C37.8423 117.531 38.2697 118.916 37.7527 120.355C37.2269 121.818 37.6617 122.595 39.3682 123.39C40.5122 123.922 40.9322 124.678 40.9983 125.625C41.0483 126.356 40.9851 127.093 41.0321 127.824C41.1232 129.114 41.6269 130.28 42.9413 131.144C43.5361 131.536 44.1779 131.936 45.0194 131.658C45.8771 131.381 46.2266 130.779 46.2427 130.095C46.2662 129.281 46.2163 128.457 46.1473 127.641C46.0283 126.22 46.0944 124.87 47.9625 124.067L48.2063 123.895C50.1654 122.376 50.3695 120.78 49.0081 118.893C48.0095 117.504 47.5527 116.03 48.4457 114.449C48.7981 113.826 49.0904 113.139 49.1521 112.466C49.2079 111.806 49.1315 111.058 48.7673 110.482C48.0609 109.371 47.1298 108.343 46.253 107.298C44.8755 105.662 44.0971 103.994 45.5789 102.132L45.783 101.779C47.19 99.7709 47.3148 97.7639 45.7243 95.7764C45.2382 95.1686 45.1751 94.5861 45.7214 93.9738C46.7362 92.8479 46.5365 91.7209 45.7434 90.5686C45.2735 89.8896 44.8652 89.175 44.5362 88.4489C43.9047 87.06 44.4775 86.2167 46.5908 85.6296C47.4294 86.3454 48.334 87.1553 49.2857 87.9296C50.7029 89.0762 52.4652 89.5185 54.4111 89.0842C55.8783 88.758 56.7448 89.2336 57.4585 90.0769C58.2178 90.9764 58.8625 91.9334 59.6409 92.818C60.2621 93.52 60.9391 94.2128 61.7292 94.7987C62.5546 95.4191 63.1979 95.3375 64.0232 94.7148C65.555 93.5476 65.8839 93.5269 67.3467 94.7171C68.1485 95.3777 69.0136 95.8487 70.2222 95.7361C71.1269 95.6488 71.7011 95.9452 72.0594 96.5645C72.8246 97.896 73.647 99.2114 74.3505 100.561C75.2317 102.258 76.6885 102.794 78.7886 102.1C79.0911 102 79.3878 101.883 79.6962 101.786C80.8829 101.412 81.0048 101.392 81.6847 102.292C82.5233 103.4 83.2884 104.548 83.9919 105.714C84.9362 107.271 86.4871 108.292 88.5828 108.579C89.8575 108.756 90.5287 109.225 91.0413 110.035C91.3085 110.46 91.6302 110.867 91.896 111.291C93.1326 113.253 94.5321 115.084 97.4224 115.812L97.9746 116.09C99.3991 116.861 100.743 117.661 100.838 119.204C100.937 120.738 101.739 122.121 102.469 123.52C102.968 124.475 103.695 125.243 104.871 125.737C105.827 126.142 106.479 126.743 106.86 127.556C107.224 128.322 107.666 129.07 108.129 129.801C108.776 130.814 109.953 131.445 110.778 131.274C111.637 131.097 112.089 130.358 112.047 129.091C112.031 128.536 111.665 127.918 111.872 127.438C112.415 126.207 111.959 125.042 111.721 123.869ZM61.5633 69.0217C61.2211 69.1917 60.7879 69.2618 60.3825 69.3308C59.4852 69.495 58.5482 69.5651 57.6773 69.7914C56.6919 70.0488 55.7153 70.3728 54.8077 70.7737C54.1101 71.0851 53.436 71.4987 52.9337 71.98C52.2097 72.6762 51.3579 73.1599 50.1948 73.5264C49.7997 73.2667 49.4223 72.96 48.9788 72.7268C47.0329 71.6997 45.8565 71.6262 44.3013 72.5395C43.8768 72.7888 43.3804 72.9566 42.5418 73.3265C42.7004 72.5142 42.743 71.9846 42.9178 71.4826C43.0779 71.0299 43.4069 70.6163 43.6213 70.174C44.2792 68.8161 44.078 68.2485 42.4934 67.4604C41.8428 67.1387 41.596 66.7688 41.6122 66.1978C41.6386 65.3362 41.6225 64.4722 41.6152 63.6083C41.6093 62.3353 40.9601 61.3829 39.4431 60.8097C38.4239 60.4236 38.3357 60.1456 38.5854 59.261C38.7425 58.721 38.8747 58.165 38.954 57.6135C39.233 55.7512 38.0435 54.4553 36.2944 53.3513C35.9948 53.1628 35.6893 52.8055 35.6996 52.531C35.7392 51.2121 35.1782 49.8932 35.8391 48.5686C36.2562 47.7276 35.5762 47.0532 34.8463 46.5098C33.7023 45.6665 33.5671 44.644 33.8506 43.5377C34.0841 42.6071 34.6304 42.3256 35.823 42.4555C36.149 42.4945 36.4912 42.4991 36.8025 42.5715C39.5121 43.2126 41.6445 42.4072 43.5317 40.9562C43.8445 40.7149 44.1734 40.4794 44.4789 40.2336C45.5158 39.396 46.7935 39.0996 48.2415 39.218C49.1756 39.2927 50.0949 39.4673 51.026 39.5063C52.2288 39.558 53.4331 39.5224 54.7739 39.5224C57.4042 43.2597 58.5321 43.7066 62.581 42.5543C63.5547 43.3229 64.6488 44.0202 63.9351 45.377C63.6091 46.002 63.9057 46.6683 64.4741 47.1911C65.2569 47.9137 66.0381 48.6386 66.8958 49.305C67.4774 49.7599 68.1882 50.1149 68.855 50.5239C68.4276 51.0765 68.2234 51.3695 67.984 51.6406C67.0074 52.7435 66.8136 53.5155 67.8754 54.4668C69.3425 55.7754 68.573 57.154 68.4878 58.5303L68.2807 58.8692C67.235 59.7906 66.1689 60.7028 65.1276 61.6265C64.0952 62.5398 63.7868 63.6807 63.5503 64.8307C63.4123 65.5096 63.3638 66.2024 63.2243 66.8837C63.0392 67.7614 62.5634 68.5334 61.5633 69.0217Z" fill="#11B0C8" stroke="#87F54E" stroke-width="2" mask="url(#path-2-inside-2_49_86)"/>
<path d="M500.236 71.7C500.261 72.378 500.664 73.06 501.094 73.528L501.096 73.5303C501.701 74.1805 502.04 74.6599 502.02 75.2826H502.02L502.02 75.2883C502.013 75.605 502.151 75.8842 502.274 76.0842C502.388 76.2682 502.531 76.4469 502.643 76.5879C502.656 76.6041 502.669 76.6197 502.681 76.6349C502.949 76.976 503.235 77.3061 503.512 77.6257L503.535 77.6516C503.807 77.9655 504.071 78.2695 504.318 78.5799L504.319 78.5811C504.636 78.9786 504.822 79.3584 504.887 79.7255C504.951 80.0857 504.904 80.4677 504.702 80.889L504.701 80.8923C504.491 81.3364 504.433 81.8048 504.479 82.3315L504.577 83.4807L505.348 82.6231C506.07 81.8212 506.992 81.3265 508.052 80.9594C508.837 80.6875 509.663 80.4955 510.526 80.295C510.845 80.2207 511.17 80.1452 511.499 80.0641L511.5 80.0641C513.421 79.59 515.295 78.9698 517.146 78.3568C517.934 78.096 518.718 77.8364 519.5 77.59L519.515 77.5853L519.53 77.5797L519.825 77.466L519.879 77.4453L519.926 77.4128C521.219 76.5334 522.715 75.8856 524.265 75.2144C524.431 75.1426 524.597 75.0704 524.764 74.9977C526.469 74.2557 528.212 73.4551 529.652 72.266C530.461 71.5988 531.62 71.1153 532.802 70.6536L532.803 70.6531C534.164 70.1177 535.568 69.6511 536.985 69.1798C537.438 69.0293 537.892 68.8783 538.346 68.7245C539.033 68.4926 539.636 68.3976 540.244 68.6286L540.245 68.629L494.178 51.9221L493.679 51.9492C493.679 51.9506 493.679 51.952 493.679 51.9533C493.761 53.4548 494.341 54.8127 494.981 56.0826C495.154 56.426 495.33 56.7608 495.504 57.0907C495.987 58.0099 496.451 58.8919 496.777 59.8205L496.778 59.8225C496.886 60.1268 497.121 60.377 497.34 60.5602C497.57 60.7519 497.839 60.9157 498.09 61.035L498.09 61.035C498.788 61.3661 499.275 61.7579 499.592 62.1924C499.905 62.6222 500.069 63.1184 500.083 63.695L500.083 63.6954C500.11 64.7744 500.123 65.8646 500.137 66.9587C500.156 68.5384 500.176 70.1263 500.236 71.7ZM500.236 71.7L500.735 71.6814L500.236 71.7003C500.236 71.7002 500.236 71.7001 500.236 71.7ZM470.332 108.135C471.473 109.474 471.447 109.922 469.937 110.988L470.226 111.396C470.226 111.396 470.226 111.396 470.226 111.397C468.385 112.703 466.499 113.969 464.612 115.221L464.336 114.805L464.612 115.221C463.777 115.776 463.151 116.322 462.816 117.041C462.721 117.247 462.57 117.454 462.393 117.625C462.217 117.794 461.984 117.959 461.711 118.036C459.852 118.564 458.688 119.636 457.763 120.965C456.847 122.283 455.615 123.362 453.901 124.057L453.9 124.058C453.488 124.224 453.06 124.365 452.65 124.501C452.607 124.515 452.564 124.529 452.521 124.543C452.065 124.694 451.633 124.842 451.228 125.019L451.228 125.019C447.453 126.671 444.346 129.002 441.206 131.361L441.206 131.361C440.63 131.794 440.268 132.433 439.868 133.141C439.839 133.194 439.808 133.248 439.778 133.301L439.777 133.303C439.57 133.664 439.469 133.955 439.481 134.188C439.491 134.377 439.578 134.612 439.979 134.872C440.641 135.299 441.46 135.342 442.556 134.842L443.197 134.49C443.911 134.021 444.624 133.547 445.339 133.072C446.844 132.072 448.354 131.068 449.894 130.096C449.894 130.096 449.894 130.096 449.894 130.096L450.161 130.519C451.004 129.986 451.949 129.467 452.958 129.205L452.832 128.721C452.832 128.721 452.833 128.721 452.833 128.721C454.827 128.2 456.887 127.829 458.924 127.473C461.074 127.09 462.901 126.41 464.409 125.171C465.972 123.882 467.609 122.641 469.235 121.408C469.826 120.96 470.416 120.513 471 120.065L471.002 120.064C471.357 119.794 471.77 119.496 472.238 119.277C473.583 118.642 474.534 117.756 475.072 116.697C476.179 114.518 478.006 112.765 479.825 111.096C479.825 111.096 479.825 111.096 479.825 111.096L480.163 111.464C480.469 111.183 480.787 110.908 481.105 110.634C481.639 110.173 482.173 109.713 482.651 109.218L489.723 79.4852M470.332 108.135L470.713 107.811C470.713 107.811 470.713 107.811 470.713 107.81C470.245 107.259 470.116 106.911 470.135 106.638C470.154 106.358 470.34 105.998 470.921 105.453L470.921 105.453C472.666 103.815 474.63 102.4 477.054 101.418C477.458 101.257 477.85 101.079 478.23 100.895L478.334 100.845L478.405 100.754L478.594 100.513L478.851 100.185L478.576 99.8731L478.323 99.5871L478.31 99.5721L478.296 99.5583C477.718 99.0009 477.641 98.685 477.67 98.5379C477.699 98.3923 477.893 98.1119 478.708 97.7961C480.187 97.2252 481.73 96.7646 483.293 96.2982C483.735 96.1663 484.178 96.034 484.622 95.8985M470.332 108.135C469.353 106.981 469.373 106.218 470.579 105.088C472.357 103.42 474.372 101.965 476.867 100.954C477.193 100.824 477.513 100.682 477.826 100.534M470.332 108.135L477.826 100.534M484.622 95.8985C484.622 95.8986 484.622 95.8986 484.622 95.8987L484.476 95.4203L484.622 95.8985ZM484.622 95.8985C484.987 95.7878 485.367 95.6991 485.763 95.6096C485.81 95.599 485.857 95.5885 485.904 95.5779C486.253 95.4995 486.614 95.4183 486.969 95.3215M486.969 95.3215C486.969 95.3214 486.969 95.3213 486.97 95.3213L486.838 94.8389L486.968 95.3217C486.968 95.3216 486.968 95.3216 486.969 95.3215ZM486.969 95.3215C487.592 95.1535 488.163 94.941 488.512 94.558C488.92 94.1097 488.934 93.5499 488.737 92.9628C488.418 91.9992 488.486 91.09 488.74 90.1624C488.926 89.4845 489.198 88.8324 489.486 88.1433C489.604 87.8612 489.724 87.5729 489.842 87.2742C489.842 87.274 489.842 87.2738 489.842 87.2736L489.377 87.0899M489.377 87.0899C489.942 85.6653 490.434 84.2246 490.922 82.796C491.137 82.1669 491.351 81.5402 491.57 80.9182C491.26 80.7724 490.983 80.6481 490.731 80.5348C490.235 80.3123 489.834 80.1322 489.468 79.9152M489.377 87.0899C489.267 87.368 489.152 87.6446 489.037 87.9205C488.336 89.5994 487.644 91.2566 488.262 93.1214L489.377 87.0899ZM489.468 79.9152L489.724 79.4856C489.724 79.4854 489.723 79.4853 489.723 79.4852M489.468 79.9152L489.723 79.4852M489.468 79.9152C488.677 79.4442 488.302 78.8089 488.331 78.0024M489.723 79.4852C489.383 79.2823 489.159 79.0608 489.022 78.8296C488.887 78.6016 488.82 78.3379 488.831 78.0211M488.331 78.0024L488.831 78.0222C488.831 78.0218 488.831 78.0215 488.831 78.0211M488.331 78.0024C488.361 77.2475 488.316 76.4887 488.27 75.7332C488.267 75.6724 488.263 75.6115 488.259 75.5507L488.831 78.0211M488.331 78.0024L488.831 78.0206C488.831 78.0208 488.831 78.021 488.831 78.0211M477.826 100.534L477.826 100.535L477.828 100.533" fill="#11B0C8" stroke="#87F54E"/>
<mask id="path-4-inside-3_49_86" fill="white">
<path d="M271.908 91.4348C270.992 89.7173 270.175 87.9963 270.323 86.0754C270.425 84.7507 270.281 83.4158 270.344 82.0888C270.394 81.0158 270.445 79.9255 270.751 78.887C271.294 77.0465 272.006 75.2301 272.686 73.4138C273.007 72.5682 272.936 71.7652 272.233 71.0873C271.234 70.1177 271.125 69.032 271.464 67.9107C271.886 66.5321 272.451 65.1776 272.918 63.8059C273.086 63.3153 273.277 62.7983 273.244 62.2986C273.195 61.4484 272.764 60.6603 271.686 60.3133C270.536 59.9399 269.507 60.2869 268.717 60.9797C268.175 61.4553 267.609 61.978 267.316 62.5616C266.796 63.5956 266.426 64.6836 266.083 65.7658C265.417 67.8878 264.81 70.0246 264.177 72.1523L263.957 72.6383C262.662 74.2019 262.212 75.9608 261.908 77.7691C261.754 78.7066 261.12 79.3258 259.992 79.8474C258.362 80.6056 256.843 81.5695 255.485 82.6116C254.197 83.5961 253.164 84.7875 252.026 85.8904C252.058 85.1379 252.007 84.3739 252.174 83.6432C252.759 81.1077 253.437 78.5825 254.064 76.047C254.376 74.7821 254.715 73.5103 254.919 72.2327C255.02 71.5664 255.009 70.8369 254.765 70.2016C254.462 69.4169 253.85 68.6897 252.618 68.6299C251.444 68.5679 250.643 69.0688 250.077 69.8282C249.886 70.0878 249.719 70.3636 249.573 70.6416C248.127 73.4471 246.69 76.2561 245.151 79.2523C244.639 77.421 243.681 76.0906 241.055 76.5617C240.135 75.3657 239.908 74.1238 239.596 72.9071C239.346 71.9421 238.757 71.1402 237.899 70.4382C237.236 69.8948 236.394 69.8948 235.598 70.1246C234.786 70.3613 234.241 70.8174 234.241 71.5882C234.241 72.2293 234.113 72.8681 234.055 73.5114C233.955 74.5787 233.792 75.6483 233.784 76.7156C233.78 77.8334 233.867 78.9559 234.031 80.0668C234.276 81.7281 232.98 82.8184 231.866 84.1418C231.317 83.2664 230.769 82.5622 230.42 81.7982C230.183 81.2869 230.289 80.6884 230.138 80.1461C229.897 79.3074 229.536 78.4917 229.293 77.6531C229.017 76.6938 228.794 75.7241 228.584 74.7603C228.483 74.2927 228.512 73.8124 228.402 73.3483C227.876 71.1115 227.058 68.9148 227.048 66.6079C227.043 65.8876 226.913 65.1454 226.676 64.4481C226.406 63.6634 225.66 63.2487 224.898 63.3854C223.923 63.5623 222.942 63.8196 222.416 64.5526C221.883 65.2982 221.386 66.0726 221.012 66.8745C220.617 67.7212 220.383 68.6127 220.088 69.487C219.884 70.0993 219.446 70.4773 218.578 70.444C216.991 70.3877 216.192 71.1655 215.626 72.1661C215.228 72.8761 214.946 73.6263 214.485 74.311C213.272 76.1297 212.967 77.9782 213.968 79.9152C214.311 80.5758 214.39 81.2502 214.07 81.9291C212.974 84.2659 212.45 86.7716 210.674 88.9142C210.323 89.3381 210.013 89.8517 209.961 90.3468C209.868 91.1821 209.618 92.2183 210.109 92.8456C210.994 93.96 211.162 95.0663 211.119 96.2795C211.106 96.5346 211.152 96.8011 211.228 97.0481C211.483 97.8397 212.279 98.4061 213.15 98.4428C214.111 98.4785 214.703 98.0924 215.061 97.1205C215.327 96.4105 215.646 95.7557 216.353 95.2157C217.176 94.5827 217.349 93.7498 216.945 92.9341C216.619 92.2666 216.866 91.7691 217.336 91.2602C217.691 90.8776 218.116 90.5192 218.395 90.109C218.665 89.7046 218.95 89.2439 218.947 88.8096C218.931 87.3586 219.927 86.3258 220.999 85.2011C221.373 85.424 221.596 85.6388 221.883 85.7181C223.194 86.0708 223.66 86.9209 224.025 87.84C224.541 89.1555 224.94 90.5065 225.584 91.7818C226.465 93.5384 227.524 95.2398 228.522 96.962L228.929 97.3664C229.475 97.819 230.116 97.9419 230.882 97.7386C231.891 97.4778 232.496 96.9413 232.504 96.129C232.51 94.4115 232.435 92.6905 232.376 90.9707C232.342 90.0091 232.26 89.044 232.195 87.9331C233.355 88.4167 233.812 88.967 233.714 89.7954C233.667 90.1779 233.753 90.5766 233.679 90.9546C233.379 92.4412 234.616 93.2569 235.858 94.0611C236.335 94.3678 236.927 94.3724 237.381 94.0427C238.557 93.1845 239.712 92.3045 239.485 90.8569C239.422 90.4824 239.409 90.0723 239.528 89.7104C239.985 88.3191 239.817 86.9818 239.124 85.6698C238.894 85.2367 238.792 84.8243 239.137 84.2969C239.938 84.8679 240.773 85.2712 241.264 85.8548C242.418 87.2127 243.436 88.6431 244.444 90.0722C245.24 91.2004 245.914 92.3792 246.685 93.5177C247.088 94.1128 247.688 94.5827 248.641 94.5126C249.607 94.4414 250.255 94.0347 250.525 93.2684C250.692 92.7882 250.939 92.3252 251.183 91.7818L251.397 91.9667L251.463 92.347C251.597 94.1071 252.818 95.1904 254.878 95.7844C255.598 95.99 256.301 96.2359 256.965 96.5266C259.661 97.7064 262.714 97.2676 264.638 95.3972C264.941 95.1043 265.227 94.8021 265.653 94.3678C265.835 95.0204 265.979 95.5167 266.101 96.0142C266.415 97.24 267.182 98.2717 268.326 99.123C269.404 99.9249 270.874 99.9846 272.111 99.3286C273.197 98.7496 273.773 98.0051 273.659 96.9321C273.45 95.0169 272.845 93.196 271.908 91.4348ZM219.374 79.9186C220.33 77.9265 221.232 76.0596 222.129 74.1893L222.557 74.2743C222.557 75.2566 222.376 76.2641 222.607 77.2142C222.824 78.0885 223.485 78.8996 224.047 79.9198H219.374V79.9186ZM262.38 89.6656C261.825 90.0252 261.407 90.5169 260.88 90.9132C259.98 91.5979 258.852 91.4762 258.674 90.5732C258.507 89.7379 258.796 88.8349 258.974 87.9721C259.149 87.1289 259.595 86.5246 260.786 86.1523C261.848 85.8123 262.685 85.0437 263.911 84.2923C264.189 86.3718 264.622 88.2065 262.38 89.6656Z"/>
</mask>
<path d="M271.908 91.4348C270.992 89.7173 270.175 87.9963 270.323 86.0754C270.425 84.7507 270.281 83.4158 270.344 82.0888C270.394 81.0158 270.445 79.9255 270.751 78.887C271.294 77.0465 272.006 75.2301 272.686 73.4138C273.007 72.5682 272.936 71.7652 272.233 71.0873C271.234 70.1177 271.125 69.032 271.464 67.9107C271.886 66.5321 272.451 65.1776 272.918 63.8059C273.086 63.3153 273.277 62.7983 273.244 62.2986C273.195 61.4484 272.764 60.6603 271.686 60.3133C270.536 59.9399 269.507 60.2869 268.717 60.9797C268.175 61.4553 267.609 61.978 267.316 62.5616C266.796 63.5956 266.426 64.6836 266.083 65.7658C265.417 67.8878 264.81 70.0246 264.177 72.1523L263.957 72.6383C262.662 74.2019 262.212 75.9608 261.908 77.7691C261.754 78.7066 261.12 79.3258 259.992 79.8474C258.362 80.6056 256.843 81.5695 255.485 82.6116C254.197 83.5961 253.164 84.7875 252.026 85.8904C252.058 85.1379 252.007 84.3739 252.174 83.6432C252.759 81.1077 253.437 78.5825 254.064 76.047C254.376 74.7821 254.715 73.5103 254.919 72.2327C255.02 71.5664 255.009 70.8369 254.765 70.2016C254.462 69.4169 253.85 68.6897 252.618 68.6299C251.444 68.5679 250.643 69.0688 250.077 69.8282C249.886 70.0878 249.719 70.3636 249.573 70.6416C248.127 73.4471 246.69 76.2561 245.151 79.2523C244.639 77.421 243.681 76.0906 241.055 76.5617C240.135 75.3657 239.908 74.1238 239.596 72.9071C239.346 71.9421 238.757 71.1402 237.899 70.4382C237.236 69.8948 236.394 69.8948 235.598 70.1246C234.786 70.3613 234.241 70.8174 234.241 71.5882C234.241 72.2293 234.113 72.8681 234.055 73.5114C233.955 74.5787 233.792 75.6483 233.784 76.7156C233.78 77.8334 233.867 78.9559 234.031 80.0668C234.276 81.7281 232.98 82.8184 231.866 84.1418C231.317 83.2664 230.769 82.5622 230.42 81.7982C230.183 81.2869 230.289 80.6884 230.138 80.1461C229.897 79.3074 229.536 78.4917 229.293 77.6531C229.017 76.6938 228.794 75.7241 228.584 74.7603C228.483 74.2927 228.512 73.8124 228.402 73.3483C227.876 71.1115 227.058 68.9148 227.048 66.6079C227.043 65.8876 226.913 65.1454 226.676 64.4481C226.406 63.6634 225.66 63.2487 224.898 63.3854C223.923 63.5623 222.942 63.8196 222.416 64.5526C221.883 65.2982 221.386 66.0726 221.012 66.8745C220.617 67.7212 220.383 68.6127 220.088 69.487C219.884 70.0993 219.446 70.4773 218.578 70.444C216.991 70.3877 216.192 71.1655 215.626 72.1661C215.228 72.8761 214.946 73.6263 214.485 74.311C213.272 76.1297 212.967 77.9782 213.968 79.9152C214.311 80.5758 214.39 81.2502 214.07 81.9291C212.974 84.2659 212.45 86.7716 210.674 88.9142C210.323 89.3381 210.013 89.8517 209.961 90.3468C209.868 91.1821 209.618 92.2183 210.109 92.8456C210.994 93.96 211.162 95.0663 211.119 96.2795C211.106 96.5346 211.152 96.8011 211.228 97.0481C211.483 97.8397 212.279 98.4061 213.15 98.4428C214.111 98.4785 214.703 98.0924 215.061 97.1205C215.327 96.4105 215.646 95.7557 216.353 95.2157C217.176 94.5827 217.349 93.7498 216.945 92.9341C216.619 92.2666 216.866 91.7691 217.336 91.2602C217.691 90.8776 218.116 90.5192 218.395 90.109C218.665 89.7046 218.95 89.2439 218.947 88.8096C218.931 87.3586 219.927 86.3258 220.999 85.2011C221.373 85.424 221.596 85.6388 221.883 85.7181C223.194 86.0708 223.66 86.9209 224.025 87.84C224.541 89.1555 224.94 90.5065 225.584 91.7818C226.465 93.5384 227.524 95.2398 228.522 96.962L228.929 97.3664C229.475 97.819 230.116 97.9419 230.882 97.7386C231.891 97.4778 232.496 96.9413 232.504 96.129C232.51 94.4115 232.435 92.6905 232.376 90.9707C232.342 90.0091 232.26 89.044 232.195 87.9331C233.355 88.4167 233.812 88.967 233.714 89.7954C233.667 90.1779 233.753 90.5766 233.679 90.9546C233.379 92.4412 234.616 93.2569 235.858 94.0611C236.335 94.3678 236.927 94.3724 237.381 94.0427C238.557 93.1845 239.712 92.3045 239.485 90.8569C239.422 90.4824 239.409 90.0723 239.528 89.7104C239.985 88.3191 239.817 86.9818 239.124 85.6698C238.894 85.2367 238.792 84.8243 239.137 84.2969C239.938 84.8679 240.773 85.2712 241.264 85.8548C242.418 87.2127 243.436 88.6431 244.444 90.0722C245.24 91.2004 245.914 92.3792 246.685 93.5177C247.088 94.1128 247.688 94.5827 248.641 94.5126C249.607 94.4414 250.255 94.0347 250.525 93.2684C250.692 92.7882 250.939 92.3252 251.183 91.7818L251.397 91.9667L251.463 92.347C251.597 94.1071 252.818 95.1904 254.878 95.7844C255.598 95.99 256.301 96.2359 256.965 96.5266C259.661 97.7064 262.714 97.2676 264.638 95.3972C264.941 95.1043 265.227 94.8021 265.653 94.3678C265.835 95.0204 265.979 95.5167 266.101 96.0142C266.415 97.24 267.182 98.2717 268.326 99.123C269.404 99.9249 270.874 99.9846 272.111 99.3286C273.197 98.7496 273.773 98.0051 273.659 96.9321C273.45 95.0169 272.845 93.196 271.908 91.4348ZM219.374 79.9186C220.33 77.9265 221.232 76.0596 222.129 74.1893L222.557 74.2743C222.557 75.2566 222.376 76.2641 222.607 77.2142C222.824 78.0885 223.485 78.8996 224.047 79.9198H219.374V79.9186ZM262.38 89.6656C261.825 90.0252 261.407 90.5169 260.88 90.9132C259.98 91.5979 258.852 91.4762 258.674 90.5732C258.507 89.7379 258.796 88.8349 258.974 87.9721C259.149 87.1289 259.595 86.5246 260.786 86.1523C261.848 85.8123 262.685 85.0437 263.911 84.2923C264.189 86.3718 264.622 88.2065 262.38 89.6656Z" fill="#11B0C8" stroke="#87F54E" stroke-width="2" mask="url(#path-4-inside-3_49_86)"/>
<path d="M194.159 52.1406L194.157 52.1409C193.87 52.1784 193.587 52.2108 193.308 52.2428C192.394 52.3477 191.528 52.4469 190.731 52.6976L190.73 52.6979C189.443 53.1003 188.178 53.6333 187.103 54.2863L187.103 54.2863C184.038 56.1478 181.039 58.0791 178.034 60.0141C177.767 60.186 177.5 60.358 177.232 60.53C177.125 60.5995 177.014 60.6759 176.899 60.7553C176.23 61.2163 175.414 61.7794 174.233 61.6908M194.159 52.1406L174.269 61.1921M194.159 52.1406C194.661 52.0732 194.983 52.2306 195.182 52.5229C195.233 52.5976 195.247 52.6493 195.251 52.6799C195.255 52.7094 195.253 52.7398 195.238 52.778C195.205 52.8677 195.11 52.9917 194.923 53.1372L194.923 53.1377C194.794 53.2387 194.665 53.3397 194.536 53.4405C193.224 54.4684 191.928 55.4839 190.533 56.4059L190.533 56.4062C190.508 56.4222 190.484 56.4383 190.46 56.4545C189.772 56.9093 189.022 57.4057 188.553 58.1788L188.553 58.1794C187.543 59.8469 185.987 61.1156 183.784 61.9129C183.571 61.9888 183.365 62.0803 183.179 62.1629C183.15 62.1758 183.122 62.1884 183.094 62.2007C182.878 62.296 182.685 62.3774 182.487 62.4359C180.006 63.1679 178.752 64.7705 178.177 66.6364L178.176 66.6371C177.333 69.3892 175.08 71.0894 171.653 72.1168L171.652 72.1168C170.991 72.3152 170.349 72.5002 169.703 72.6862C169.124 72.8528 168.542 73.0202 167.942 73.1987L167.941 73.1991C166.852 73.5261 166.046 74.1587 165.708 74.9891C165.362 75.8399 165.556 76.7791 166.233 77.5803L166.234 77.5815M194.159 52.1406L166.234 77.5815M174.233 61.6908C174.232 61.6908 174.232 61.6907 174.232 61.6907L174.269 61.1921M174.233 61.6908C174.233 61.6908 174.233 61.6908 174.233 61.6908L174.269 61.1921M174.233 61.6908C173.356 61.6272 172.644 61.8911 171.955 62.3234L171.953 62.3241C171.444 62.6418 170.922 62.9814 170.394 63.3243C169.721 63.7623 169.039 64.2056 168.365 64.6155L168.365 64.616C167.79 64.9642 167.152 65.3033 166.457 65.5412M174.269 61.1921C173.256 61.1186 172.438 61.4299 171.689 61.8998C171.156 62.2319 170.632 62.5734 170.106 62.9151C169.445 63.3454 168.783 63.776 168.105 64.1883C167.546 64.5273 166.942 64.8466 166.295 65.0684M166.457 65.5412C166.457 65.5411 166.458 65.5411 166.458 65.541L166.295 65.0684M166.457 65.5412C165.666 65.8143 164.843 66.0454 164.031 66.2731C163.711 66.3629 163.392 66.4522 163.078 66.5434L162.741 66.6416L162.534 66.3569C162.109 65.7713 161.858 65.1421 161.836 64.4756C161.814 63.808 162.025 63.1514 162.441 62.5152L162.443 62.5131C162.729 62.0806 162.947 61.6449 163.034 61.2304L163.034 61.2302C163.054 61.1354 163.074 61.0417 163.094 60.9492C163.396 59.5399 163.64 58.3991 162.758 57.2444M166.457 65.5412C166.457 65.5413 166.457 65.5413 166.457 65.5414L166.295 65.0684M166.295 65.0684C165.518 65.3365 164.717 65.5613 163.91 65.7875C163.587 65.8782 163.263 65.9692 162.939 66.0633C162.18 65.0167 162.116 63.9241 162.86 62.789C163.162 62.3318 163.418 61.8355 163.523 61.3334C163.545 61.2293 163.568 61.1253 163.59 61.0213C163.887 59.6499 164.183 58.2846 163.155 56.9402M162.648 50.3136C162.687 50.2216 162.728 50.1298 162.768 50.038C162.888 49.7628 163.009 49.4875 163.105 49.2084C163.675 47.5643 163.858 45.8985 163.424 44.2189C162.948 42.3566 160.899 41.7752 158.953 42.9298C158.808 43.0153 158.663 43.1005 158.521 43.1842C158.318 43.303 158.121 43.419 157.934 43.5295C155.981 43.1435 155.606 43.1849 154.748 44.1821C154.364 44.6302 154.08 45.1908 153.999 45.7227M162.648 50.3136L162.19 50.1139C162.189 50.1145 162.189 50.115 162.189 50.1155M162.648 50.3136L162.188 50.117C162.189 50.1165 162.189 50.116 162.189 50.1155M162.648 50.3136C162.237 51.2579 162.008 52.1402 162.632 53.1501M162.189 50.1155C162.232 50.0143 162.275 49.9169 162.316 49.8222C162.435 49.5526 162.543 49.304 162.632 49.046L162.632 49.0446C163.178 47.4692 163.344 45.9061 162.94 44.3441L162.939 44.3426C162.745 43.5831 162.245 43.1083 161.602 42.9236C160.944 42.7349 160.087 42.8386 159.208 43.3598L159.207 43.3606C159.06 43.4469 158.915 43.5322 158.773 43.616C158.571 43.7344 158.375 43.8496 158.188 43.9599L158.024 44.057L157.837 44.0201C156.834 43.8219 156.356 43.7636 156.026 43.8279C155.756 43.8805 155.543 44.0256 155.128 44.5078M162.189 50.1155C161.977 50.6015 161.789 51.1219 161.753 51.6744C161.715 52.2436 161.84 52.8196 162.206 53.4121M155.128 44.5078L154.748 44.1821L155.128 44.5081C155.128 44.508 155.128 44.5079 155.128 44.5078ZM155.128 44.5078C154.792 44.8987 154.559 45.3743 154.494 45.7956M154.494 45.7956C154.494 45.7948 154.494 45.794 154.494 45.7932L153.999 45.7227M154.494 45.7956C154.447 46.125 154.455 46.4702 154.475 46.8532C154.479 46.9269 154.484 47.0027 154.488 47.0801C154.507 47.3909 154.527 47.728 154.518 48.0593C154.502 48.7589 154.513 49.4404 154.524 50.133C154.532 50.6378 154.54 51.1484 154.538 51.6761C154.533 52.8972 154.47 54.1386 154.201 55.3622L154.201 55.3624C153.527 58.4225 152.634 61.5062 151.162 64.4661M154.494 45.7956C154.494 45.7963 154.494 45.7971 154.494 45.7978L153.999 45.7227M153.999 45.7227C153.934 46.1827 153.962 46.6511 153.99 47.1206C154.008 47.4296 154.027 47.739 154.019 48.0469C154.002 48.7487 154.013 49.4547 154.024 50.1609C154.051 51.8767 154.078 53.5937 153.713 55.2548L151.162 64.4661M171.796 72.5957C171.144 72.7914 170.489 72.98 169.834 73.1687C169.25 73.3367 168.667 73.5048 168.085 73.6779C166.099 74.2742 165.458 75.8872 166.615 77.2578L171.796 72.5957ZM171.796 72.5957C175.308 71.5433 177.742 69.7592 178.654 66.7836L171.796 72.5957ZM159.78 87.9858C159.736 88.1491 159.693 88.3107 159.65 88.4706C159.636 88.4656 159.622 88.4605 159.608 88.4554L159.78 87.9858ZM159.78 87.9858C159.948 88.0472 160.107 88.0945 160.259 88.1291C160.26 88.1244 160.262 88.1197 160.263 88.1151L159.78 87.9858ZM151.236 76.2272C151.488 75.9876 151.738 75.7459 151.988 75.5041C152.395 75.1105 152.803 74.7164 153.224 74.3293C153.425 74.1451 153.654 73.9793 153.882 73.8133C153.951 73.7637 154.019 73.7141 154.086 73.664C154.092 73.6453 154.098 73.6266 154.104 73.6079L154.145 73.6206C154.16 73.6091 154.175 73.5976 154.19 73.586L154.581 73.7583C154.512 73.9769 154.442 74.1956 154.371 74.4147C154.206 74.928 154.041 75.4429 153.891 75.9607C153.858 76.0701 153.823 76.1797 153.788 76.2895C153.65 76.7221 153.511 77.158 153.503 77.5932M151.236 76.2272L150.894 75.8625C150.893 75.8628 150.893 75.8632 150.892 75.8636M151.236 76.2272L150.891 75.8645C150.892 75.8642 150.892 75.8639 150.892 75.8636M151.236 76.2272C150.673 76.7546 149.999 77.1302 149.075 76.8878C148.049 76.6213 147.416 76.0239 147.283 75.191M150.892 75.8636C151.137 75.6315 151.384 75.3931 151.633 75.1525C152.044 74.7548 152.461 74.3513 152.886 73.9612L152.886 73.9606C153.109 73.7564 153.378 73.5613 153.617 73.3879C153.713 73.3174 153.806 73.2506 153.888 73.1881L154.122 73.0095L154.392 73.1286L154.783 73.3009L155.193 73.4817L155.058 73.9088C154.987 74.1328 154.916 74.3545 154.845 74.5751C154.681 75.0853 154.519 75.5894 154.371 76.1001L154.37 76.104C154.33 76.2363 154.291 76.3608 154.253 76.4794C154.12 76.9004 154.01 77.2469 154.003 77.6023M150.892 75.8636C150.394 76.3307 149.891 76.5849 149.202 76.4042L149.201 76.4039C148.305 76.1713 147.87 75.6931 147.777 75.113M154.003 77.6023C154.003 77.6021 154.003 77.6019 154.003 77.6017L153.503 77.5932M154.003 77.6023C154.003 77.6024 154.003 77.6025 154.003 77.6027L153.503 77.5932M154.003 77.6023C153.968 79.6654 153.595 81.699 152.133 83.5826M153.503 77.5932C153.469 79.5991 153.108 81.5109 151.738 83.2767M151.738 83.2767L152.134 83.5821C152.134 83.5823 152.133 83.5824 152.133 83.5826M151.738 83.2767L152.133 83.5832C152.133 83.583 152.133 83.5828 152.133 83.5826M151.738 83.2767L152.133 83.5826M147.777 75.113C147.777 75.1132 147.777 75.1133 147.777 75.1135L147.283 75.191M147.777 75.113C147.707 74.661 147.723 74.2042 147.863 73.8325M147.777 75.113C147.777 75.1129 147.777 75.1127 147.777 75.1126L147.283 75.191M147.283 75.191C147.204 74.6855 147.214 74.134 147.395 73.6549M147.863 73.8325C147.862 73.8329 147.862 73.8333 147.862 73.8337L147.395 73.6549M147.863 73.8325C148.117 73.1684 148.409 72.5115 148.707 71.8417L148.724 71.8033C149.015 71.1498 149.312 70.4834 149.574 69.807M147.863 73.8325C147.863 73.8321 147.863 73.8317 147.863 73.8314L147.395 73.6549M147.395 73.6549C147.659 72.9646 147.962 72.2844 148.265 71.6048C148.558 70.9475 148.85 70.2907 149.108 69.6259M149.574 69.807C149.573 69.8073 149.573 69.8076 149.573 69.8078L149.108 69.6259M149.574 69.807C149.815 69.1876 149.988 68.5324 150.151 67.9108C150.221 67.6455 150.289 67.3863 150.36 67.1387M149.574 69.807C149.574 69.8068 149.574 69.8065 149.574 69.8062L149.108 69.6259M149.108 69.6259C149.339 69.034 149.499 68.4257 149.658 67.8169C149.73 67.5441 149.802 67.2712 149.88 66.9996M150.36 67.1387C150.36 67.1391 150.36 67.1394 150.36 67.1398L149.88 66.9996M150.36 67.1387C150.447 66.8427 150.523 66.5269 150.596 66.2251C150.638 66.0531 150.679 65.8857 150.719 65.7292C150.837 65.2761 150.968 64.8561 151.162 64.4661M150.36 67.1387C150.36 67.1384 150.36 67.1382 150.36 67.1379L149.88 66.9996M149.88 66.9996C149.964 66.7118 150.035 66.4197 150.105 66.1274C150.261 65.4854 150.416 64.8427 150.714 64.2435L151.162 64.4661M162.206 53.4121C162.206 53.4118 162.206 53.4115 162.206 53.4113L162.632 53.1501M162.206 53.4121C162.318 53.595 162.359 53.8386 162.363 54.1918C162.365 54.2839 162.363 54.3924 162.36 54.5096C162.355 54.7779 162.349 55.0923 162.379 55.3637M162.206 53.4121C162.206 53.4124 162.206 53.4127 162.207 53.413L162.632 53.1501M162.632 53.1501C162.88 53.5558 162.87 54.0607 162.86 54.5675C162.855 54.8184 162.849 55.0699 162.876 55.31C162.892 55.4634 162.895 55.6241 162.898 55.7854C162.907 56.2047 162.915 56.6282 163.155 56.9402M162.379 55.3637C162.391 55.478 162.395 55.6023 162.398 55.7473C162.398 55.763 162.398 55.7789 162.399 55.7951C162.401 55.9226 162.404 56.0662 162.414 56.207C162.437 56.5206 162.502 56.9105 162.758 57.2444M162.379 55.3637C162.379 55.3639 162.379 55.3641 162.379 55.3643L162.876 55.31L162.379 55.3628C162.379 55.3631 162.379 55.3634 162.379 55.3637ZM163.155 56.9402L162.758 57.2439C162.758 57.244 162.758 57.2442 162.758 57.2444M163.155 56.9402L162.758 57.2448C162.758 57.2447 162.758 57.2445 162.758 57.2444M150.601 105.339L150.602 105.34C150.931 105.615 151.214 105.728 151.456 105.739C151.691 105.75 151.959 105.67 152.274 105.416L152.275 105.415C153.032 104.806 153.705 104.168 153.966 103.529C153.967 103.529 153.967 103.528 153.967 103.528L154.43 103.717C155.08 102.113 155.781 100.538 156.7 99.0183M150.601 105.339L156.7 99.0183M150.601 105.339C149.972 104.815 149.47 104.336 149.171 103.815C148.889 103.321 148.781 102.777 148.98 102.078L150.601 105.339ZM156.7 99.0183L156.272 98.7596C156.272 98.76 156.272 98.7604 156.272 98.7608C156.271 98.7612 156.271 98.7616 156.271 98.7619L156.7 99.0183ZM159.438 87.3284L159.952 87.5163C160.718 87.7968 161.231 87.7277 161.645 87.5371C162.067 87.343 162.419 87.0128 162.851 86.6081C162.885 86.5763 162.919 86.544 162.954 86.5112C163.137 86.3375 163.371 86.242 163.545 86.1775C163.622 86.1488 163.691 86.1249 163.756 86.1022C163.868 86.0632 163.97 86.0277 164.088 85.9774L164.527 85.7894L164.735 86.2204C164.855 86.4697 164.964 86.7321 165.063 86.9682C165.117 87.0978 165.168 87.2195 165.216 87.3266C165.36 87.6528 165.501 87.919 165.69 88.1467C165.882 88.3752 166.145 88.5883 166.463 88.8177C166.558 88.8867 166.662 88.9592 166.769 89.0341C166.996 89.1933 167.239 89.3634 167.454 89.5346L167.487 89.5608L167.516 89.5923L167.893 90.0128L167.914 90.0364L167.932 90.0626C168.061 90.2485 168.192 90.4358 168.323 90.6244C168.892 91.4386 169.479 92.2785 169.964 93.1447C170.566 94.2191 171.035 95.3722 171.146 96.644C171.254 97.8798 172.034 98.8079 173.35 99.6332C175.089 100.723 176.089 102.208 176.529 103.854C177.061 105.822 178.337 107.5 179.921 109.119L179.921 109.119C180.71 109.926 181.095 110.762 181.235 111.746M159.438 87.3284L181.235 111.746M159.438 87.3284L159.297 87.8566M159.438 87.3284L159.297 87.8566M181.235 111.746C181.242 111.796 181.249 111.845 181.256 111.894C181.354 112.593 181.438 113.188 181.751 113.668L181.751 113.669C182.449 114.745 183.024 115.867 183.147 117.181L183.147 117.182C183.191 117.671 183.716 118.12 184.659 118.132M181.235 111.746L184.659 118.132M184.659 118.132C185.196 118.137 185.511 118.05 185.714 117.913M184.659 118.132L185.714 117.913M159.297 87.8566C158.827 89.6134 158.413 91.1672 158.001 92.7235L158.485 92.8512L159.297 87.8566ZM186.189 117.136L186.19 117.133C186.212 117.059 186.219 116.997 186.232 116.883C186.24 116.815 186.25 116.728 186.266 116.608L186.326 116.171L186.768 116.176C187.576 116.187 188.099 116.104 188.43 115.948C188.719 115.811 188.881 115.611 188.955 115.259L188.955 115.258C189.243 113.908 189.391 112.684 188.794 111.506C188.504 110.936 188.26 110.353 188.024 109.789C187.987 109.699 187.949 109.609 187.911 109.52L187.911 109.52C186.298 105.681 184.708 101.759 184.433 97.5578C184.375 96.7592 183.802 95.8504 183.115 94.9977C183.115 94.9977 183.115 94.9976 183.115 94.9975L183.504 94.6837L186.189 117.136ZM186.189 117.136C186.067 117.563 185.906 117.784 185.714 117.913M186.189 117.136L185.714 117.913M176.4 87.0456L176.4 87.0455C175.269 86.8969 174.104 86.612 173.277 85.6931L176.4 87.0456ZM176.4 87.0456C177.859 87.2355 178.794 87.5231 179.42 87.9861C180.02 88.4307 180.396 89.0846 180.617 90.1697L176.4 87.0456ZM166.234 77.5815C166.609 78.0234 166.945 78.4725 167.291 78.9359C167.465 79.168 167.641 79.4037 167.826 79.6439C167.873 79.7052 167.924 79.7753 167.978 79.8505C168.116 80.0405 168.277 80.2626 168.454 80.4545M166.234 77.5815L168.454 80.4545M168.454 80.4545C169.028 81.0788 169.604 81.7 170.179 82.3206M168.454 80.4545L170.179 82.3206M170.179 82.3206C171.218 83.4419 172.256 84.5611 173.276 85.693L170.179 82.3206ZM153.045 88.1177L152.557 88.0065L153.045 88.1178C153.045 88.1178 153.045 88.1178 153.045 88.1177ZM151.172 96.1267L150.686 96.0095L151.172 96.127L151.172 96.1267ZM156.691 97.6517C156.691 97.6518 156.691 97.652 156.691 97.6521L157.173 97.7845L156.691 97.6517Z" fill="#11B0C8" stroke="#87F54E"/>
<path d="M439.998 107.278L439.999 107.277C440.441 106.798 440.542 106.301 440.357 105.828L440.356 105.827C439.933 104.734 439.458 103.655 438.895 102.61C437.922 100.828 437.329 98.9861 437.75 96.8847C438.323 94.0001 437.516 91.2588 435.241 88.8844C434.699 88.3197 434.305 87.7438 434.082 87.1156C433.857 86.482 433.819 85.8261 433.943 85.1208L433.943 85.1203C434.075 84.3812 434.047 83.7307 433.573 83.1407C433.517 83.0711 433.461 83.0016 433.405 82.9324C432.076 81.2792 430.835 79.7362 428.67 78.7963C428.14 78.5673 427.746 78.1363 427.757 77.5722C427.768 77.0296 428.153 76.5937 428.656 76.3318L428.657 76.3315C428.944 76.1822 429.251 76.0728 429.53 75.9772C429.57 75.9637 429.609 75.9505 429.647 75.9375C429.89 75.8547 430.109 75.78 430.316 75.6889L430.319 75.688C430.548 75.5884 430.776 75.4929 431.001 75.3987C431.743 75.0876 432.45 74.791 433.082 74.4101C434.204 73.733 435.403 73.2518 436.81 73.042L436.81 73.042C437.244 72.9774 437.669 72.7987 438.149 72.5972L438.177 72.5853C439.674 71.9544 440.665 70.9429 441.561 69.7744C442.02 69.1755 442.172 68.5758 442.08 67.9204L442.08 67.9202C442.06 67.7828 442.045 67.6459 442.032 67.5167L442.029 67.4922C442.016 67.3697 442.003 67.2545 441.988 67.1404C441.956 66.8977 441.915 66.6844 441.843 66.4897C441.786 66.3358 441.738 66.1953 441.692 66.061C441.62 65.85 441.553 65.6544 441.463 65.4467C441.327 65.1314 441.174 64.8858 440.966 64.7099L440.965 64.7084C440.143 64.0053 439.51 63.1914 438.915 62.4255C438.686 62.1302 438.462 61.842 438.234 61.57L438.233 61.5683C437.962 61.2409 437.702 60.8684 437.638 60.4292C437.568 59.9561 437.737 59.5159 438.072 59.0834L438.072 59.0824C438.424 58.6307 438.48 58.278 438.405 57.985C438.323 57.6637 438.053 57.2951 437.51 56.894C436.317 56.022 434.97 55.6348 433.347 55.9228L433.346 55.923C431.75 56.2034 430.288 55.905 428.926 55.3632L428.925 55.363C427.932 54.9668 427.181 54.8148 426.526 54.8855C425.884 54.9548 425.272 55.245 424.573 55.8619C423.503 56.8063 422.53 57.8078 421.543 58.8244C421.134 59.246 420.721 59.6702 420.299 60.0941L420.298 60.0949C420.156 60.2371 420.027 60.3803 419.875 60.5487C419.799 60.6328 419.717 60.7232 419.626 60.8228L419.326 61.1489L418.966 60.8905C418.051 60.2338 417.962 59.3869 417.898 58.7812C417.887 58.6768 417.877 58.5796 417.863 58.4917C417.814 58.1797 417.766 57.8696 417.719 57.5613C417.524 56.289 417.334 55.0459 417.014 53.8209L417.014 53.8202C416.851 53.1932 416.323 52.8693 415.537 52.8654L415.534 52.8654C414.698 52.8568 413.987 53.3248 413.763 53.9736L413.762 53.9765L413.762 53.9765C413.726 54.0806 413.71 54.2071 413.705 54.3788C413.704 54.453 413.704 54.5276 413.705 54.6111C413.705 54.6242 413.705 54.6376 413.705 54.6513C413.705 54.7474 413.705 54.8544 413.7 54.963L439.998 107.278ZM439.998 107.278C439.071 108.286 437.438 108.429 436.212 107.53L436.211 107.53C434.985 106.632 434.353 105.458 434.034 104.184C433.662 102.677 433.192 101.197 432.488 99.7354L432.487 99.7344C432.193 99.1269 432.174 98.3652 432.224 97.5648C432.281 96.6482 432.147 95.7855 431.772 94.9823C431.397 94.18 430.795 93.4646 429.954 92.8227L429.954 92.8226C429.272 92.3015 428.707 91.6373 428.206 90.9487L439.998 107.278ZM411.398 73.9631L411.398 73.9635C411.458 74.7154 412.021 75.2802 413.111 75.7492C413.855 76.067 414.442 76.4722 414.707 77.0631C414.982 77.677 414.846 78.3378 414.513 78.9996C414.336 79.354 414.128 79.6948 413.933 80.0153L413.92 80.0368C413.717 80.3703 413.528 80.6827 413.37 81.0016L413.37 81.0022C412.843 82.0647 412.789 83.0646 413.456 83.9924L413.456 83.9931C413.937 84.6646 414.199 85.344 414.262 86.0541C414.324 86.7592 414.188 87.46 413.926 88.1723C413.565 89.1546 413.425 90.2459 413.588 91.2233L413.588 91.2236C413.829 92.6624 413.848 94.0697 413.625 95.4962L413.624 95.4986C413.533 96.0613 413.466 96.5559 413.54 97.009C413.601 97.3557 413.786 97.7331 414.051 97.9573C415.26 98.9756 417.113 98.6712 417.736 97.4761C418.151 96.6723 418.327 95.7242 418.346 94.8074L418.346 94.8068C418.382 93.2192 418.794 91.7687 419.62 90.3269L419.62 90.3265C420.066 89.5489 420.269 88.6817 420.489 87.7458C420.529 87.5753 420.569 87.4026 420.612 87.2277C420.679 86.9449 420.705 86.6466 420.717 86.3452C420.722 86.2414 420.724 86.1275 420.727 86.0124C420.731 85.8239 420.736 85.6324 420.747 85.4781L420.807 84.6852L421.496 85.0827C421.631 85.1604 421.784 85.2464 421.946 85.3379C422.233 85.4992 422.551 85.6776 422.851 85.8576C422.851 85.8576 422.851 85.8577 422.851 85.8577L422.594 86.2866L411.398 73.9631ZM411.398 73.9631C411.39 73.8587 411.381 73.7563 411.372 73.6556C411.31 72.9317 411.256 72.2994 411.418 71.7154C412.062 69.4093 412.512 67.0977 412.586 64.697C412.62 63.6659 412.782 62.6296 412.974 61.5688C413.021 61.3112 413.069 61.0513 413.118 60.7896C413.269 59.9846 413.423 59.1633 413.531 58.3448C413.633 57.5627 413.652 56.7555 413.67 55.9813M411.398 73.9631L413.67 55.9813M413.67 55.9813C413.677 55.6335 413.685 55.2924 413.7 54.9633L413.67 55.9813ZM427.98 70.4734L427.98 70.4727C428.174 70.1888 428.383 69.8382 428.522 69.4718C428.656 69.1157 428.75 68.6749 428.619 68.2492C428.367 67.4179 428.27 66.7302 428.458 66.1236C428.639 65.5369 429.12 64.9243 430.257 64.3237L431.795 63.5118L430.061 63.3829C429.236 63.3216 428.563 63.2862 428.006 63.3006C427.45 63.315 426.978 63.3794 426.567 63.536C425.707 63.8638 425.252 64.5443 424.755 65.5039L424.755 65.505C424.499 66.003 424.17 66.3949 423.724 66.6996C423.273 67.0071 422.679 67.242 421.872 67.3888L421.265 67.4992L421.499 68.0702C421.538 68.1668 421.571 68.2729 421.604 68.3945C421.613 68.4255 421.622 68.4593 421.631 68.4946C421.656 68.586 421.683 68.6877 421.712 68.7794C421.79 69.0298 421.926 69.3836 422.267 69.6022C423.208 70.207 423.922 70.9159 424.529 71.7325L424.531 71.7345C424.683 71.9371 424.911 72.0525 425.059 72.1243C425.123 72.1554 425.182 72.1826 425.239 72.2089C425.348 72.2588 425.449 72.3057 425.568 72.371L425.89 72.5479L426.155 72.2933C426.347 72.1097 426.531 71.9469 426.719 71.78C426.845 71.669 426.972 71.5563 427.105 71.4344C427.419 71.1467 427.734 70.8332 427.98 70.4734ZM440.366 107.616C440.912 107.025 441.09 106.331 440.823 105.646L435.916 107.933C437.329 108.97 439.251 108.828 440.366 107.616Z" fill="#11B0C8" stroke="#87F54E"/>
<path d="M440.955 77.1295L440.954 77.1296C440.383 77.2471 440.064 77.4448 439.906 77.6436C439.764 77.8225 439.699 78.0702 439.795 78.4457L439.795 78.446C439.914 78.9167 440.144 79.2487 440.466 79.4606C440.792 79.6759 441.266 79.8011 441.926 79.7553C443.202 79.6656 444.267 79.9866 445.287 80.2942C445.385 80.3235 445.482 80.3527 445.578 80.3815L445.578 80.3815C446.042 80.5193 446.471 80.7055 446.876 80.8951C447.023 80.9639 447.163 81.0316 447.301 81.0979C447.554 81.2199 447.798 81.3374 448.055 81.4494C448.824 81.784 449.597 82.0137 450.551 81.9231L451.372 81.8451L451.061 82.6094C451.019 82.7132 450.991 82.7954 450.962 82.8832C450.948 82.9236 450.934 82.9651 450.918 83.0105C450.873 83.1397 450.811 83.3008 450.694 83.4536C449.908 84.5013 449.611 85.6265 449.561 86.8777L449.561 86.8797C449.528 87.6452 449.066 88.3908 448.652 88.9375C448.185 89.5642 448.078 90.115 448.287 90.6946L448.288 90.6973C448.504 91.3079 448.738 91.8815 449.096 92.3752L449.097 92.3765C449.37 92.7545 449.548 93.1471 449.569 93.5831C449.59 94.0179 449.449 94.4275 449.215 94.8338C448.802 95.5595 448.559 96.2678 448.531 96.9565C448.503 97.6365 448.682 98.3288 449.167 99.0369L449.168 99.0386C449.368 99.332 449.576 99.7622 449.551 100.207L449.55 100.212C449.521 100.66 449.51 101.116 449.501 101.583C449.5 101.647 449.499 101.712 449.498 101.777C449.491 102.178 449.484 102.588 449.465 102.995C449.423 103.943 449.319 104.915 448.999 105.856L448.999 105.858C448.196 108.202 448.121 110.544 448.193 112.978L440.955 77.1295ZM440.955 77.1295C441.351 77.0478 441.769 76.997 442.176 76.9797L442.178 76.9796C443.186 76.9326 444.161 76.7369 445.018 76.1713C445.739 75.6962 446.633 75.6141 447.7 75.6107L447.701 75.6107C448.211 75.6089 448.659 75.5723 449.038 75.4839C449.416 75.3956 449.758 75.2482 450.019 75.0012C450.578 74.473 450.576 73.7017 450.37 72.8901L450.37 72.8898C450.055 71.6498 450.239 70.5044 450.943 69.382C451.564 68.3976 451.88 67.362 451.859 66.2413L451.858 66.2388M440.955 77.1295L451.858 66.2388M461.43 75.6311C464.043 75.3589 464.473 75.4668 465.877 76.9787C466.209 76.9787 466.539 76.9777 466.868 76.9767C467.593 76.9745 468.312 76.9723 469.029 76.981M461.43 75.6311L469.998 84.7841C469.02 84.2085 468.064 84.0534 466.789 84.2108C464.485 84.4888 462.182 84.3498 460.292 82.9884C459.99 82.7697 459.577 82.6483 459.164 82.5268C458.971 82.4703 458.779 82.4138 458.597 82.3474L458.195 82.576C458.211 82.8296 458.22 83.0841 458.229 83.3387C458.249 83.8926 458.269 84.4469 458.357 84.9932C458.633 86.7418 458.525 88.4294 457.393 90.0057C457.016 90.5295 456.982 91.0592 457.258 91.6141M461.43 75.6311C461.281 75.6462 461.13 75.6631 460.979 75.6802C460.14 75.775 459.275 75.8727 458.332 75.6554L461.43 75.6311ZM469.029 76.981L469.022 77.481C469.023 77.481 469.023 77.481 469.023 77.481C470.327 77.4983 471.402 77.8532 472.19 78.5829L472.193 78.5852C472.759 79.1024 473.396 79.3163 474.168 79.3948C475.133 79.4935 476.092 79.6368 476.965 79.8939L476.966 79.8941C477.601 80.0803 478.222 80.4104 478.69 80.7881L478.691 80.789C479.153 81.1597 479.257 81.4666 479.24 81.6786C479.222 81.9047 479.053 82.2199 478.545 82.5671C478.289 82.7406 478.026 82.8804 477.737 83.0342C477.58 83.1176 477.415 83.2052 477.239 83.3046L477.003 83.4383L476.986 83.7094C476.939 84.4785 476.732 84.8703 476.404 85.0999C476.038 85.3557 475.408 85.4968 474.313 85.4665C472.799 85.4205 471.433 85.0531 470.253 84.354L470.252 84.3532C469.161 83.7112 468.089 83.5466 466.729 83.7145C464.471 83.9868 462.323 83.8347 460.585 82.5832C460.295 82.3734 459.95 82.2461 459.644 82.1494C459.513 82.1078 459.393 82.0728 459.28 82.0397C459.101 81.9874 458.938 81.9398 458.769 81.8778L458.552 81.7982L458.35 81.9126L457.948 82.1413L457.677 82.2954L457.696 82.6069C457.71 82.8331 457.719 83.0722 457.728 83.3186C457.748 83.8874 457.77 84.4949 457.863 85.0721C458.127 86.7483 458.014 88.2846 456.987 89.7139C456.755 90.0364 456.612 90.3853 456.582 90.7589C456.553 91.1325 456.64 91.4939 456.81 91.8368L457.258 91.6141M469.029 76.981C470.42 76.9994 471.627 77.3797 472.53 78.2161L469.029 76.981ZM457.258 91.6141C457.791 92.6936 457.676 93.8085 457.561 94.9145C457.547 95.0514 457.532 95.1883 457.519 95.3249M457.258 91.6141L456.81 91.8355C457.275 92.7777 457.177 93.7421 457.063 94.8653C457.049 94.9994 457.035 95.1358 457.022 95.2746M457.519 95.3249L457.022 95.2726C457.022 95.2733 457.022 95.2739 457.022 95.2746M457.519 95.3249C457.481 95.6879 457.232 96.0739 456.954 96.3795L457.519 95.3249ZM457.022 95.2746C457 95.4757 456.84 95.7614 456.584 96.0427M457.022 95.2746L456.584 96.0427M456.584 96.0427C455.236 97.5158 454.892 99.1911 454.702 100.833C454.364 103.732 453.945 106.632 453.503 109.531C453.434 109.977 453.266 110.4 453.074 110.879C453.006 111.05 452.935 111.229 452.864 111.419M456.584 96.0427L448.193 112.979C448.224 114.021 448.495 115.006 449.276 115.814M452.864 111.419C452.864 111.419 452.864 111.418 452.864 111.418L453.332 111.594L452.864 111.419C452.864 111.419 452.864 111.419 452.864 111.419ZM452.864 111.419C452.4 112.655 451.924 113.885 451.443 115.111M451.443 115.111C451.43 115.142 451.419 115.172 451.407 115.2C451.318 115.428 451.257 115.584 451.156 115.719M451.443 115.111C451.443 115.111 451.442 115.112 451.442 115.112L451.908 115.294M451.443 115.111C451.443 115.111 451.443 115.11 451.443 115.11L451.908 115.294M451.156 115.719C450.867 116.104 450.547 116.263 450.261 116.28C449.974 116.297 449.627 116.177 449.276 115.814M451.156 115.719C451.156 115.72 451.156 115.72 451.156 115.72L451.557 116.018M451.156 115.719C451.156 115.719 451.157 115.719 451.157 115.718L451.557 116.018M449.276 115.814C449.276 115.814 449.275 115.814 449.275 115.814L448.916 116.162M449.276 115.814C449.276 115.814 449.276 115.814 449.276 115.814L448.916 116.162M448.916 116.162C449.774 117.046 450.842 116.972 451.557 116.018M448.916 116.162L451.908 115.294M451.557 116.018C451.7 115.825 451.787 115.603 451.873 115.384C451.884 115.354 451.896 115.324 451.908 115.294M451.858 66.2388C451.826 64.8714 452.29 63.5486 452.899 62.1686L451.858 66.2388ZM460.435 67.8066C459.992 69.7082 459.278 71.5558 458.223 73.3174L461.564 55.1711L461.162 54.8732C461.162 54.8733 461.162 54.8734 461.162 54.8735C460.946 55.1652 460.76 55.4309 460.64 55.6757C460.516 55.9258 460.432 56.2092 460.493 56.5177C460.552 56.8207 460.733 57.0575 460.939 57.2551C461.144 57.452 461.42 57.6539 461.746 57.8774C462.467 58.3735 462.782 58.9085 462.907 59.461C463.035 60.0273 462.974 60.6567 462.84 61.3702L462.778 61.5252C461.461 63.536 460.926 65.7037 460.435 67.8064L460.435 67.8066ZM458.803 49.7138C459.454 48.581 460.412 47.7758 462.049 47.5712L458.803 49.7138Z" fill="#11B0C8" stroke="#87F54E"/>
<path d="M128.078 95.8223C128.66 95.2847 129.387 95.0377 130.422 95.3444C131.053 95.5317 131.951 95.4087 132.625 95.2077C133.431 94.9687 134.196 94.5644 134.841 94.1129M128.078 95.8223L127.739 95.4547M128.078 95.8223C127.41 96.4381 126.841 97.1378 126.355 97.8524C126.058 98.2931 125.806 98.7542 125.555 99.2155C125.287 99.7067 125.019 100.198 124.696 100.665M128.078 95.8223L127.739 95.4552C127.739 95.455 127.739 95.4548 127.739 95.4547M127.739 95.4547C128.079 95.1402 128.481 94.8943 128.965 94.7801C129.449 94.6659 129.979 94.6918 130.564 94.865L130.564 94.8651C131.055 95.0107 131.838 94.9206 132.482 94.7286L132.483 94.7283C133.227 94.5078 133.943 94.1311 134.553 93.7043M127.739 95.4547L111.45 88.1468C111.406 88.2481 111.361 88.3498 111.316 88.4518C111.021 89.1179 110.719 89.7978 110.646 90.4813C110.51 91.7152 111.259 92.2919 112.868 92.3896C113.377 92.4223 113.889 92.4212 114.402 92.4201C114.662 92.4196 114.922 92.419 115.182 92.4229C116.787 92.4539 117.29 92.8686 116.978 94.0968C116.695 95.2307 116.984 96.2084 118.185 96.8506C119.293 97.4491 119.52 98.2315 119.547 99.1747C119.563 99.7733 119.642 100.387 119.855 100.96M134.553 93.7043C134.552 93.7045 134.552 93.7047 134.552 93.7049L134.841 94.1129M134.553 93.7043C134.553 93.7039 134.554 93.7036 134.554 93.7033L134.841 94.1129M134.553 93.7043C135.797 92.8232 137.124 92.5912 138.702 92.7967M134.841 94.1129C135.961 93.319 137.155 93.0995 138.637 93.2926M138.637 93.2926L138.702 92.7967M138.637 93.2926C142.04 93.7349 145.17 91.976 145.715 89.3164C145.829 88.7683 145.682 88.0802 145.324 87.6091M138.637 93.2926L138.702 92.7967C138.702 92.7967 138.702 92.7967 138.702 92.7967M138.702 92.7967C141.947 93.2186 144.751 91.5285 145.225 89.216L145.225 89.214C145.31 88.8071 145.196 88.2671 144.926 87.9122M144.926 87.9122C144.926 87.9125 144.927 87.9128 144.927 87.9131L145.324 87.6091M144.926 87.9122C144.926 87.9121 144.926 87.912 144.926 87.9119L145.324 87.6091M144.926 87.9122C144.634 87.5307 144.275 87.3557 143.83 87.3459C143.356 87.3355 142.749 87.5126 142.008 87.93L141.762 87.4943M145.324 87.6091C144.556 86.6062 143.324 86.6154 141.762 87.4943M141.762 87.4943L142.008 87.93C140.986 88.5049 140.087 88.8279 139.15 88.8335C138.214 88.8391 137.307 88.527 136.272 87.9604M141.762 87.4943L136.272 87.9604M136.272 87.9604C136.008 87.8165 135.75 87.6652 135.501 87.5187C135.464 87.4975 135.429 87.4765 135.393 87.4556C135.106 87.2878 134.828 87.1268 134.543 86.9786L134.541 86.9778C133.589 86.4786 132.701 86.3628 131.84 86.9107L131.839 86.9114C131.026 87.4266 130.192 87.397 129.389 87.0734L129.388 87.0729C128.395 86.6698 127.462 86.8117 126.519 87.2803L126.516 87.2816C126.178 87.4474 125.85 87.6274 125.51 87.8137C125.465 87.8384 125.42 87.8632 125.374 87.8882C124.99 88.0985 124.591 88.3138 124.17 88.5053L124.168 88.5064C123.513 88.8004 122.826 88.836 122.271 88.5883C121.695 88.332 121.318 87.7933 121.307 87.1002C121.298 86.6769 121.406 86.2289 121.625 85.8439C121.625 85.8438 121.625 85.8438 121.625 85.8437L122.06 86.0904C122.415 85.4631 122.835 84.8588 123.267 84.2614L136.272 87.9604ZM119.855 100.96C120.017 101.392 120.352 101.825 120.747 102.158C121.424 102.74 122.371 102.804 123.098 102.278M119.855 100.96L120.324 100.786C120.324 100.786 120.324 100.786 120.324 100.786M119.855 100.96L120.324 100.785C120.324 100.785 120.324 100.785 120.324 100.786M123.098 102.278C123.725 101.818 124.285 101.256 124.696 100.665M123.098 102.278L122.805 101.873C122.804 101.873 122.804 101.873 122.803 101.874M123.098 102.278L122.802 101.874C122.803 101.874 122.803 101.874 122.803 101.874M124.696 100.665L124.285 100.38M124.696 100.665L124.285 100.379C124.285 100.38 124.285 100.38 124.285 100.38L124.285 100.38M124.285 100.38C123.909 100.921 123.39 101.444 122.803 101.874M124.285 100.38L122.803 101.874M122.803 101.874C122.274 102.256 121.583 102.217 121.072 101.779L121.069 101.776C120.723 101.484 120.448 101.118 120.324 100.786M122.803 101.874L111.825 81.2349C111.942 81.1381 112.059 81.0416 112.173 80.9446C113.028 80.2151 113.514 79.3695 113.58 78.3884M120.324 100.786C120.137 100.282 120.062 99.7278 120.047 99.1612L120.047 99.1607C120.033 98.6578 119.964 98.1402 119.717 97.6557C119.464 97.1617 119.049 96.749 118.423 96.4107L118.421 96.4096C117.902 96.132 117.624 95.8078 117.489 95.4719C117.352 95.1307 117.339 94.7161 117.463 94.2188C117.63 93.5614 117.638 92.8979 117.135 92.4409C116.906 92.2323 116.612 92.1111 116.297 92.0378C115.981 91.9642 115.61 91.931 115.192 91.923L115.19 91.9229C114.911 91.9188 114.641 91.9194 114.377 91.92C113.876 91.9212 113.394 91.9224 112.9 91.8906L112.898 91.8905C112.128 91.8437 111.671 91.6848 111.424 91.478C111.214 91.3025 111.088 91.0348 111.143 90.5357L111.143 90.535C111.207 89.9354 111.473 89.3352 111.77 88.6615C111.816 88.5582 111.862 88.4533 111.909 88.3463L111.909 88.3452C111.967 88.2128 112.063 88.0728 112.213 87.8852C112.256 87.8319 112.305 87.7725 112.358 87.7084C112.475 87.5667 112.611 87.4022 112.738 87.231L113.333 86.4325H112.337C112.175 86.4325 112.045 86.4341 111.934 86.4356C111.742 86.438 111.606 86.4398 111.46 86.4311L111.459 86.431C110.829 86.3936 110.375 86.2171 110.115 85.9911C109.879 85.7866 109.774 85.5231 109.851 85.1617L109.851 85.1601C110.015 84.3801 110.423 83.5795 110.927 82.8188L110.928 82.817C111.09 82.5705 111.32 82.3315 111.6 82.0814C111.775 81.9246 111.949 81.781 112.13 81.6315C112.249 81.5337 112.37 81.4335 112.497 81.3252L112.498 81.3249C113.43 80.5287 114.002 79.5662 114.079 78.422L113.58 78.3884M113.58 78.3884C113.684 76.9052 114.167 75.5553 115.088 74.218C115.721 73.2894 115.914 72.1363 116.094 71.0581C116.097 71.0372 116.101 71.0163 116.104 70.9955M113.58 78.3884L114.079 78.4235C114.176 77.0359 114.626 75.7709 115.5 74.5016L115.501 74.4995C116.197 73.4784 116.405 72.2291 116.581 71.1794C116.586 71.1457 116.592 71.1122 116.597 71.0789M116.104 70.9955L116.597 71.0799C116.597 71.0796 116.597 71.0793 116.597 71.0789M116.104 70.9955C116.554 68.3726 117.642 67.326 120.936 66.5873L116.104 70.9955ZM116.597 71.0789C116.813 69.8211 117.167 69.0284 117.792 68.4526C118.433 67.8624 119.421 67.4394 121.046 67.0752L121.046 67.0753L121.053 67.0734L121.816 66.8894M116.597 71.0789L121.816 66.8894M121.816 66.8894C122.694 66.7629 123.456 66.5179 124.039 66.0722C124.644 65.6102 125.013 64.9655 125.148 64.137C125.175 63.9758 125.284 63.7575 125.487 63.5151C125.684 63.2791 125.939 63.0573 126.195 62.8889L121.816 66.8894ZM135.828 66.3791C134.637 66.3707 133.509 66.5782 132.386 67.1327L131.891 67.3772L132.183 67.8458C132.464 68.2959 132.452 68.646 132.311 68.959C132.153 69.3119 131.804 69.6698 131.306 70.0259C129.763 71.129 128.158 72.1764 126.543 73.2305C126.214 73.4447 125.886 73.6592 125.557 73.8744L125.557 73.8746C124.137 74.806 122.566 75.8935 122.238 77.804L122.175 78.1681L122.505 78.3348C122.646 78.4059 122.764 78.4654 122.87 78.5182C123.045 78.6058 123.183 78.6749 123.321 78.7476L123.323 78.7484C124.319 79.265 124.755 79.6748 124.901 80.0627C125.037 80.424 124.975 80.9229 124.493 81.7937L126.195 62.8888C128.011 61.6961 130.17 61.0642 132.587 60.9414C133.518 60.8956 134.247 61.0852 134.748 61.5542C135.503 62.2651 136.372 62.2306 137.186 62.1724C138.485 62.0823 139.785 62.0463 141.097 62.01C141.595 61.9962 142.096 61.9823 142.599 61.9654L142.599 61.9654C143.519 61.9336 144.139 62.22 144.486 62.7429L144.487 62.7445C144.673 63.0219 144.701 63.2633 144.649 63.4911C144.593 63.7393 144.43 64.0147 144.156 64.3085C142.832 65.7187 140.923 66.2894 138.621 66.3587L138.62 66.3587C137.694 66.3871 136.765 66.3849 135.828 66.3791ZM135.828 66.3791C135.828 66.3791 135.828 66.3791 135.828 66.3791L135.825 66.8791L135.828 66.3791C135.828 66.3791 135.828 66.3791 135.828 66.3791Z" fill="#11B0C8" stroke="#87F54E"/>
<path d="M405.324 74.0702L405.325 74.0682C406.075 71.9667 406.01 69.9484 404.688 68.0034L404.688 68.0032C404.329 67.475 404.171 66.8568 404.101 66.3165C403.967 65.3778 403.567 64.6086 402.661 63.9127L402.661 63.9124C400.903 62.5589 399.036 61.4473 396.715 60.8092C393.516 59.9334 390.61 60.2376 388.204 61.9721L405.324 74.0702ZM405.324 74.0702C405.033 74.897 404.548 75.6988 404.037 76.5421L404 76.6021C404 76.6023 404 76.6025 404 76.6027C403.547 77.3452 403.371 78.0795 403.528 78.8161C403.681 79.5365 404.136 80.1787 404.775 80.7824C406.039 81.9831 407.083 83.2378 407.547 84.7128L405.324 74.0702ZM383.874 65.96L383.874 65.9601C383.419 66.3756 382.881 66.8436 382.234 67.1647C379.705 68.4217 377.896 69.9245 377.445 72.135L377.445 72.136C377.13 73.6666 376.438 75.003 375.118 76.221C373.703 77.5296 373.644 79.4141 374.782 80.5545L374.782 80.5548C376.727 82.5073 377.072 84.6853 376.683 86.9758L376.683 86.9764C376.587 87.5397 376.526 88.0982 376.457 88.729C376.426 89.0109 376.394 89.3072 376.356 89.6248C376.393 89.8377 376.426 90.0768 376.458 90.3136C376.482 90.4904 376.506 90.6658 376.531 90.828C376.599 91.2629 376.687 91.6883 376.836 92.0896L376.837 92.0911C377.125 92.8712 377.923 93.3155 378.884 93.124C380.386 92.8197 381.461 93.3487 382.45 93.8353C382.488 93.8541 382.526 93.8727 382.564 93.8913L382.565 93.8917C383.379 94.2929 384.212 94.663 385.078 94.9556L385.08 94.9563C385.641 95.1488 386.141 95.3864 386.51 95.9504L386.51 95.9512C386.914 96.5694 387.332 96.9369 387.834 97.1338C388.347 97.3346 389.008 97.3826 389.939 97.2419C390.302 97.1865 390.663 97.1175 391.034 97.0465L391.035 97.0462C391.404 96.9757 391.782 96.9033 392.165 96.8455C392.932 96.7294 393.738 96.668 394.595 96.7934L394.596 96.7936C394.816 96.8262 395.162 96.7556 395.424 96.6347C395.424 96.6346 395.425 96.6345 395.425 96.6344L395.635 97.0882C396.091 96.8762 396.567 96.6777 397.043 96.479L383.874 65.96ZM383.874 65.96C384.381 65.4962 384.87 65.008 385.35 64.5291M383.874 65.96L385.35 64.5291M393.041 76.6757C392.819 76.5548 392.589 76.4503 392.376 76.3544L392.361 76.3476C392.148 76.2516 391.954 76.1639 391.771 76.0663L391.771 76.0662C390.94 75.6237 390.362 75.1344 390.036 74.6015C389.721 74.0858 389.617 73.4922 389.8 72.7674L389.801 72.7649C389.948 72.168 390.128 71.5799 390.312 70.9768C390.38 70.7538 390.449 70.5288 390.517 70.3005L390.807 69.3278L389.859 69.6909C389.125 69.9719 388.393 70.3344 387.878 70.8361C387.34 71.3606 387.028 72.0534 387.212 72.9118L387.212 72.9122C387.372 73.6549 387.305 74.2716 387.047 74.8175C386.785 75.3723 386.304 75.899 385.559 76.416C384.686 77.0207 384.082 77.7378 383.767 78.5602C383.451 79.3839 383.442 80.2686 383.683 81.1775C383.758 81.4645 383.826 81.7542 383.895 82.0507L383.906 82.0986C383.971 82.3782 384.038 82.6639 384.111 82.9492L384.595 82.8251L384.111 82.9492C384.194 83.2735 384.341 83.6312 384.66 83.8938C384.985 84.1615 385.411 84.2684 385.922 84.2508L385.924 84.2508C386.895 84.214 387.511 84.6562 388.06 85.3045C388.535 85.8738 389.004 86.4456 389.5 87.0503C389.746 87.35 389.998 87.6578 390.261 87.9773L390.425 88.1764L390.682 88.1583C391.634 88.0916 392.703 88.0111 393.72 87.9341L394.127 87.9033L394.179 87.4984C394.187 87.433 394.195 87.3696 394.203 87.3079C394.269 86.8008 394.32 86.4113 394.24 86.023C394.15 85.5861 393.903 85.171 393.509 84.5337L393.508 84.5326L393.665 79.1074L394.126 79.3014C394.126 79.3012 394.126 79.3011 394.126 79.3009C394.343 78.7847 394.452 78.2662 394.236 77.7679C394.03 77.2948 393.58 76.9664 393.041 76.6757ZM393.041 76.6757C393.041 76.6755 393.041 76.6754 393.04 76.6752L392.803 77.1153L393.042 76.6763C393.042 76.6761 393.042 76.6759 393.041 76.6757ZM385.35 64.5291C385.57 64.3092 385.789 64.0912 386.006 63.8784M385.35 64.5291L386.006 63.8784M386.006 63.8784C386.706 63.1937 387.412 62.5431 388.203 61.9723L386.006 63.8784Z" fill="#11B0C8" stroke="#87F54E"/>
<path d="M104.114 84.9472L103.96 84.7174C103.421 83.8799 103.44 83.0769 104.098 82.2646C104.338 81.9685 104.551 81.6577 104.764 81.3468C105.021 80.9725 105.277 80.5979 105.581 80.2484C106.84 78.81 106.662 76.9489 104.21 75.8241L104.114 84.9472ZM104.114 84.9472C105.182 86.5085 105.439 88.1204 104.614 89.8023C104.539 89.9575 104.482 90.1184 104.425 90.2787C104.333 90.5372 104.241 90.794 104.081 91.0224C102.562 93.2282 102.246 95.5834 102.467 98.0431C102.544 98.8701 102.411 99.7131 102.278 100.549C102.248 100.739 102.218 100.929 102.19 101.119C102.145 101.448 101.933 101.785 101.707 102.073M104.114 84.9472L104.002 76.2791M104.002 76.2791C103.257 75.9416 102.741 75.5204 102.415 74.9911C102.091 74.4656 101.986 73.8864 101.964 73.2973C101.899 71.5876 102.275 69.9591 103.04 68.3819L103.041 68.3813C103.563 67.3085 103.75 66.342 103.201 65.4659L104.002 76.2791ZM104.002 76.2791C105.144 76.8028 105.657 77.4506 105.802 78.0383C105.946 78.6233 105.759 79.286 105.205 79.9191L105.204 79.9202C104.905 80.264 104.652 80.6263 104.417 80.9688C104.396 81.0001 104.374 81.0313 104.353 81.0622C104.138 81.376 103.936 81.6702 103.71 81.9499L103.71 81.9499C103.331 82.4177 103.107 82.9202 103.081 83.4575C103.055 83.9938 103.229 84.5057 103.54 84.988L103.54 84.9881L103.545 84.9961L103.699 85.2259L103.699 85.2259L103.702 85.2295C104.688 86.6715 104.896 88.0916 104.165 89.582L104.165 89.582L104.163 89.5867C104.076 89.7678 104.007 89.9628 103.948 90.1263C103.932 90.1713 103.917 90.2138 103.903 90.2531C103.829 90.4522 103.763 90.6053 103.671 90.7349L103.671 90.7349L103.669 90.7389C102.064 93.0697 101.741 95.5527 101.969 98.0877L101.969 98.0899C102.04 98.8481 101.919 99.614 101.788 100.445C101.757 100.641 101.725 100.842 101.696 101.047L101.695 101.05C101.669 101.239 101.533 101.485 101.317 101.761M101.707 102.073L101.32 101.758C101.319 101.759 101.318 101.76 101.317 101.761M101.707 102.073C100.85 103.127 99.5102 103.234 98.3897 102.328L101.707 102.073ZM101.317 101.761C100.967 102.189 100.541 102.403 100.108 102.437C99.6722 102.471 99.1807 102.324 98.7045 101.94L101.317 101.761ZM95.4789 80.7608L95.9781 80.7887C95.9781 80.7888 95.9781 80.7889 95.9781 80.789C95.9621 81.0756 95.9494 81.3674 95.9365 81.6626C95.8933 82.656 95.8484 83.6888 95.6688 84.6984C95.6587 84.7565 95.6487 84.8134 95.6388 84.8692C95.4904 85.7113 95.3865 86.3008 95.7393 86.8839C96.264 87.7495 96.3523 88.6494 96.083 89.5505C95.8616 90.3027 96.044 90.9793 96.6286 91.6639C97.3264 92.4766 97.5798 93.381 97.5471 94.3321C97.5343 94.8543 97.5377 95.3729 97.5412 95.9001C97.5428 96.1461 97.5444 96.3939 97.5444 96.6449V97.1449H97.4961C97.495 97.262 97.4936 97.3784 97.4922 97.4942C97.4848 98.1175 97.4776 98.7237 97.5085 99.338C97.56 100.347 97.8386 101.238 98.7039 101.939L93.4972 77.3145C93.3568 76.8134 93.4293 76.2313 93.7163 75.5608M95.4789 80.7608C95.5156 80.1186 95.1734 79.597 94.5126 79.1983M95.4789 80.7608C95.4621 81.0612 95.449 81.3621 95.4358 81.6629C95.3928 82.6504 95.3497 83.6378 95.1764 84.6118L95.4789 80.7608ZM94.5126 79.1983L94.7709 78.7702C94.7709 78.7702 94.7708 78.7702 94.7708 78.7702L94.5126 79.1983ZM94.5126 79.1983C92.8237 78.1793 92.6283 76.8317 93.2569 75.3634M93.2569 75.3634L93.716 75.5613C93.7161 75.5612 93.7162 75.561 93.7163 75.5608M93.2569 75.3634L93.7165 75.5602C93.7164 75.5604 93.7164 75.5606 93.7163 75.5608M93.2569 75.3634C93.4911 74.8201 93.7873 74.2933 94.084 73.7658L93.7163 75.5608M93.7163 75.5608C93.8979 75.1395 94.1215 74.7231 94.3621 74.2921C94.4129 74.2011 94.4646 74.1091 94.5168 74.0162C94.7082 73.676 94.9059 73.3245 95.0858 72.9699M93.7163 75.5608L95.0858 72.9699M95.0858 72.9699C95.1122 72.9183 95.1395 72.8655 95.1673 72.8118C95.4019 72.3578 95.6742 71.831 95.804 71.2815L95.804 71.2813C95.8908 70.9132 95.8864 70.5019 95.6874 70.1226C95.4864 69.7395 95.1254 69.4621 94.6424 69.2913L94.6418 69.2911C94.0995 69.1002 93.8822 68.8659 93.7908 68.6619C93.6933 68.4442 93.687 68.1475 93.7983 67.7333C93.7984 67.7331 93.7984 67.7329 93.7985 67.7327L93.3156 67.6029M95.0858 72.9699L93.53 66.8469C93.4502 67.0114 93.4114 67.1872 93.3725 67.3637C93.3548 67.4436 93.3372 67.5237 93.3156 67.6029M93.3156 67.6029C93.066 68.5312 93.229 69.3239 94.4758 69.7627M93.3156 67.6029L94.4758 69.7627M94.4758 69.7627C95.2689 70.0431 95.4525 70.5934 95.3174 71.1666L94.4758 69.7627ZM102.488 61.3894V60.9521C102.451 60.5684 102.325 60.3466 102.141 60.199C101.936 60.034 101.586 59.9042 100.997 59.8609C99.9475 59.7899 98.9984 59.9757 98.127 60.4298C97.7689 60.6189 97.2284 60.8376 96.7108 60.8128L102.488 61.3894ZM102.488 61.3894C102.169 62.8029 102.375 64.1449 103.201 65.4659L102.488 61.3894Z" fill="#11B0C8" stroke="#87F54E"/>
<path d="M96.3869 54.2787C96.1726 54.1418 95.9589 54.0067 95.7462 53.8723C95.113 53.4721 94.4895 53.0781 93.8889 52.6592C93.3185 52.2578 93.0279 51.8246 92.9116 51.3948C92.794 50.9604 92.8388 50.4709 93.0457 49.9347C93.3761 49.0963 93.8931 48.274 94.4638 47.4506L94.4645 47.4496C94.7579 47.0242 95.0161 46.5562 95.0594 46.0364C95.1053 45.4876 94.9068 44.9695 94.4743 44.4614C93.889 43.7633 94.0694 42.7062 94.9521 41.9391C95.745 41.25 96.8104 40.9077 98.0187 40.7994L98.0188 40.7994C99.4116 40.6743 100.487 41.8311 100.314 42.9452L100.314 42.9495C100.267 43.2674 100.193 43.569 100.105 43.9303C100.061 44.1116 100.013 44.3079 99.9625 44.5289L99.8075 45.212L100.504 45.1365C101.768 44.9995 102.638 45.2199 103.112 45.5894C103.341 45.7682 103.484 45.9852 103.55 46.2366C103.616 46.492 103.611 46.8146 103.488 47.2087C102.932 48.9712 102.605 50.7352 102.434 52.5285C102.38 53.0995 102.189 53.5884 101.858 53.9809C101.527 54.3735 101.03 54.6996 100.314 54.9025L100.314 54.9026C98.9236 55.2971 97.5692 55.0328 96.3869 54.2787ZM96.3869 54.2787L96.1179 54.6998L96.3866 54.2785C96.3867 54.2786 96.3868 54.2786 96.3869 54.2787Z" fill="#11B0C8" stroke="#87F54E"/>
<mask id="path-12-inside-4_49_86" fill="white">
<path d="M471.704 123.17V123.418H470.793V125.273H470.425V123.418H469.513V123.17"/>
</mask>
<path d="M471.704 123.17V123.418H470.793V125.273H470.425V123.418H469.513V123.17" fill="#11B0C8"/>
<path d="M471.704 123.418V124.418H472.704V123.418H471.704ZM470.793 123.418V122.418H469.793V123.418H470.793ZM470.793 125.273V126.273H471.793V125.273H470.793ZM470.425 125.273H469.425V126.273H470.425V125.273ZM470.425 123.418H471.425V122.418H470.425V123.418ZM469.513 123.418H468.513V124.418H469.513V123.418ZM470.704 123.17V123.418H472.704V123.17H470.704ZM471.704 122.418H470.793V124.418H471.704V122.418ZM469.793 123.418V125.273H471.793V123.418H469.793ZM470.793 124.273H470.425V126.273H470.793V124.273ZM471.425 125.273V123.418H469.425V125.273H471.425ZM470.425 122.418H469.513V124.418H470.425V122.418ZM470.513 123.418V123.17H468.513V123.418H470.513Z" fill="#87F54E" mask="url(#path-12-inside-4_49_86)"/>
<mask id="path-14-inside-5_49_86" fill="white">
<path d="M471.953 123.17H472.472L473.251 124.947L474.024 123.17H474.539V125.273H474.199V124.043L474.202 123.815V123.499L473.429 125.273H473.069L472.278 123.499V123.561L472.298 123.798V125.273H471.953"/>
</mask>
<path d="M471.953 123.17H472.472L473.251 124.947L474.024 123.17H474.539V125.273H474.199V124.043L474.202 123.815V123.499L473.429 125.273H473.069L472.278 123.499V123.561L472.298 123.798V125.273H471.953" fill="#11B0C8"/>
<path d="M472.472 123.17L473.387 122.768L473.125 122.17H472.472V123.17ZM473.251 124.947L472.336 125.349L473.256 127.446L474.169 125.346L473.251 124.947ZM474.024 123.17V122.17H473.368L473.107 122.771L474.024 123.17ZM474.539 123.17H475.539V122.17H474.539V123.17ZM474.539 125.273V126.273H475.539V125.273H474.539ZM474.199 125.273H473.199V126.273H474.199V125.273ZM474.199 124.043L473.199 124.03V124.043H474.199ZM474.202 123.815L475.202 123.828V123.815H474.202ZM474.202 123.499H475.202L473.285 123.1L474.202 123.499ZM473.429 125.273V126.273H474.084L474.346 125.673L473.429 125.273ZM473.069 125.273L472.156 125.681L472.42 126.273H473.069V125.273ZM472.278 123.499L473.191 123.092L471.278 123.499H472.278ZM472.278 123.561H471.278V123.605L471.281 123.648L472.278 123.561ZM472.298 123.798H473.298V123.755L473.294 123.712L472.298 123.798ZM472.298 125.273V126.273H473.298V125.273H472.298ZM471.953 124.17H472.472V122.17H471.953V124.17ZM471.556 123.571L472.336 125.349L474.167 124.545L473.387 122.768L471.556 123.571ZM474.169 125.346L474.941 123.568L473.107 122.771L472.334 124.548L474.169 125.346ZM474.024 124.17H474.539V122.17H474.024V124.17ZM473.539 123.17V125.273H475.539V123.17H473.539ZM474.539 124.273H474.199V126.273H474.539V124.273ZM475.199 125.273V124.043H473.199V125.273H475.199ZM475.199 124.056L475.201 123.828L473.202 123.802L473.199 124.03L475.199 124.056ZM475.202 123.815V123.499H473.202V123.815H475.202ZM473.285 123.1L472.512 124.874L474.346 125.673L475.118 123.899L473.285 123.1ZM473.429 124.273H473.069V126.273H473.429V124.273ZM473.982 124.866L473.191 123.092L471.365 123.907L472.156 125.681L473.982 124.866ZM471.278 123.499V123.561H473.278V123.499H471.278ZM471.281 123.648L471.302 123.885L473.294 123.712L473.274 123.475L471.281 123.648ZM471.298 123.798V125.273H473.298V123.798H471.298ZM472.298 124.273H471.953V126.273H472.298V124.273Z" fill="#87F54E" mask="url(#path-14-inside-5_49_86)"/>
</g>
<defs>
<filter id="filter0_d_49_86" x="0" y="0" width="556.506" height="150.705" filterUnits="userSpaceOnUse" color-interpolation-filters="sRGB">
<feFlood flood-opacity="0" result="BackgroundImageFix"/>
<feColorMatrix in="SourceAlpha" type="matrix" values="0 0 0 0 0 0 0 0 0 0 0 0 0 0 0 0 0 0 127 0" result="hardAlpha"/>
<feOffset/>
<feGaussianBlur stdDeviation="7.5"/>
<feComposite in2="hardAlpha" operator="out"/>
<feColorMatrix type="matrix" values="0 0 0 0 0.529412 0 0 0 0 0.960784 0 0 0 0 0.305882 0 0 0 1 0"/>
<feBlend mode="normal" in2="BackgroundImageFix" result="effect1_dropShadow_49_86"/>
<feBlend mode="normal" in="SourceGraphic" in2="effect1_dropShadow_49_86" result="shape"/>
</filter>
</defs>
</svg>
